^F:\DEVELOPMENT\PROJECTS\C++\LUA_INTER\VISUAL STUDIO\SOCKET_LUA_LIB\SOCKET_LUA_LIB_001\CMAKELISTS.TXT
setlocal
"C:\Program Files\CMake 2.8\bin\cmake.exe" "-HF:/Development/projects/C++/lua_inter/Visual Studio/socket_Lua_lib/socket_Lua_lib_001" "-BF:/Development/projects/C++/lua_inter/Visual Studio/socket_Lua_lib/socket_Lua_lib_001/build_windows" --check-stamp-file "F:\Development\projects\C++\lua_inter\Visual Studio\socket_Lua_lib\socket_Lua_lib_001\build_windows\CMakeFiles\generate.stamp"
if %errorlevel% neq 0 goto :cmEnd
:cmEnd
endlocal & call :cmErrorLevel %errorlevel% & goto :cmDone
:cmErrorLevel
exit /b %1
:cmDone
if %errorlevel% neq 0 goto :VCEnd
