^F:\DEVELOPMENT\PROJECTS\C++\LUA_INTER\VISUAL STUDIO\SOCKET_LUA_LIB\SOCKET_LUA_LIB_001\BUILD_WINDOWS\SOCKET_LUA_LIB.DIR\DEBUG\FUNSTATELUA_LIB.OBJ|F:\DEVELOPMENT\PROJECTS\C++\LUA_INTER\VISUAL STUDIO\SOCKET_LUA_LIB\SOCKET_LUA_LIB_001\BUILD_WINDOWS\SOCKET_LUA_LIB.DIR\DEBUG\MAIN.OBJ|F:\DEVELOPMENT\PROJECTS\C++\LUA_INTER\VISUAL STUDIO\SOCKET_LUA_LIB\SOCKET_LUA_LIB_001\BUILD_WINDOWS\SOCKET_LUA_LIB.DIR\DEBUG\REGISTER.OBJ|F:\DEVELOPMENT\PROJECTS\C++\LUA_INTER\VISUAL STUDIO\SOCKET_LUA_LIB\SOCKET_LUA_LIB_001\BUILD_WINDOWS\SOCKET_LUA_LIB.DIR\DEBUG\SOCKET.OBJ|F:\DEVELOPMENT\PROJECTS\C++\LUA_INTER\VISUAL STUDIO\SOCKET_LUA_LIB\SOCKET_LUA_LIB_001\BUILD_WINDOWS\SOCKET_LUA_LIB.DIR\DEBUG\SOCKET_LUA_LIB.DLL.EMBED.MANIFEST.RES|F:\DEVELOPMENT\PROJECTS\C++\LUA_INTER\VISUAL STUDIO\SOCKET_LUA_LIB\SOCKET_LUA_LIB_001\BUILD_WINDOWS\SOCKET_LUA_LIB.DIR\DEBUG\TCP.OBJ|F:\DEVELOPMENT\PROJECTS\C++\LUA_INTER\VISUAL STUDIO\SOCKET_LUA_LIB\SOCKET_LUA_LIB_001\BUILD_WINDOWS\SOCKET_LUA_LIB.DIR\DEBUG\UDP.OBJ
F:\DEVELOPMENT\PROJECTS\C++\LUA_INTER\VISUAL STUDIO\SOCKET_LUA_LIB\SOCKET_LUA_LIB_001\DEBUG\SOCKET_LUA_LIB.ILK
F:\DEVELOPMENT\PROJECTS\C++\LUA_INTER\VISUAL STUDIO\SOCKET_LUA_LIB\SOCKET_LUA_LIB_001\DEBUG\SOCKET_LUA_LIB.DLL
F:\DEVELOPMENT\PROJECTS\C++\LUA_INTER\VISUAL STUDIO\SOCKET_LUA_LIB\SOCKET_LUA_LIB_001\BUILD_WINDOWS\SOCKET_LUA_LIB.DIR\DEBUG\SOCKET_LUA_LIB.DLL.INTERMEDIATE.MANIFEST
F:\DEVELOPMENT\PROJECTS\C++\LUA_INTER\VISUAL STUDIO\SOCKET_LUA_LIB\SOCKET_LUA_LIB_001\DEBUG\SOCKET_LUA_LIB.PDB
