^C:\USERS\LOUCHE_P\DESKTOP\VISUAL STUDIO\LUA_INTER\LUA_INTER_010\BUILD_WINDOWS\CMAKEFILES\2.8.10.2\COMPILERIDC\DEBUG\CMAKECCOMPILERID.OBJ
C:\USERS\LOUCHE_P\DESKTOP\VISUAL STUDIO\LUA_INTER\LUA_INTER_010\BUILD_WINDOWS\CMAKEFILES\2.8.10.2\COMPILERIDC\COMPILERIDC.EXE
C:\USERS\LOUCHE_P\DESKTOP\VISUAL STUDIO\LUA_INTER\LUA_INTER_010\BUILD_WINDOWS\CMAKEFILES\2.8.10.2\COMPILERIDC\DEBUG\COMPILERIDC.EXE.INTERMEDIATE.MANIFEST
