^F:\DEVELOPMENT\PROJECTS\C++\LUA_INTER\VISUAL STUDIO\SDL_LUA_LIB\SDL_LUA_LIB_001\BUILD_WINDOWS\CMAKEFILES\2.8.10.2\COMPILERIDCXX\DEBUG\COMPILERIDCXX.EXE.INTERMEDIATE.MANIFEST
C:\WINDOWS\WINDOWSSHELL.MANIFEST
C:\WINDOWS\REGISTRATION\R000000000007.CLB
C:\WINDOWS\MICROSOFT.NET\FRAMEWORK\V2.0.50727\MSCORWKS.DLL
C:\WINDOWS\MICROSOFT.NET\FRAMEWORK\V4.0.30319\CLR.DLL
C:\PROGRAM FILES\MICROSOFT SDKS\WINDOWS\V7.0A\BIN\MT.EXE.CONFIG
F:\DEVELOPMENT\PROJECTS\C++\LUA_INTER\VISUAL STUDIO\SDL_LUA_LIB\SDL_LUA_LIB_001\BUILD_WINDOWS\CMAKEFILES\2.8.10.2\COMPILERIDCXX\COMPILERIDCXX.EXE
