^F:\DEVELOPMENT\PROJECTS\C++\LUA_INTER\VISUAL STUDIO\SDL_LUA_LIB\SDL_LUA_LIB_001\BUILD_WINDOWS\CMAKEFILES\2.8.10.2\COMPILERIDC\DEBUG\CMAKECCOMPILERID.OBJ
F:\DEVELOPMENT\PROJECTS\C++\LUA_INTER\VISUAL STUDIO\SDL_LUA_LIB\SDL_LUA_LIB_001\BUILD_WINDOWS\CMAKEFILES\2.8.10.2\COMPILERIDC\COMPILERIDC.EXE
F:\DEVELOPMENT\PROJECTS\C++\LUA_INTER\VISUAL STUDIO\SDL_LUA_LIB\SDL_LUA_LIB_001\BUILD_WINDOWS\CMAKEFILES\2.8.10.2\COMPILERIDC\DEBUG\COMPILERIDC.EXE.INTERMEDIATE.MANIFEST
