^F:\DEVELOPMENT\PROJECTS\C++\LUA_INTER\VISUAL STUDIO\SOCKET_LUA_LIB\SOCKET_LUA_LIB_001\SRC\CONTAINER\SOCKET.CPP|F:\DEVELOPMENT\PROJECTS\C++\LUA_INTER\VISUAL STUDIO\SOCKET_LUA_LIB\SOCKET_LUA_LIB_001\SRC\CONTAINER\TCP.CPP|F:\DEVELOPMENT\PROJECTS\C++\LUA_INTER\VISUAL STUDIO\SOCKET_LUA_LIB\SOCKET_LUA_LIB_001\SRC\CONTAINER\UDP.CPP|F:\DEVELOPMENT\PROJECTS\C++\LUA_INTER\VISUAL STUDIO\SOCKET_LUA_LIB\SOCKET_LUA_LIB_001\SRC\FUNSTATE\FUNSTATELUA_LIB.CPP|F:\DEVELOPMENT\PROJECTS\C++\LUA_INTER\VISUAL STUDIO\SOCKET_LUA_LIB\SOCKET_LUA_LIB_001\SRC\FUNSTATE\REGISTER.CPP|F:\DEVELOPMENT\PROJECTS\C++\LUA_INTER\VISUAL STUDIO\SOCKET_LUA_LIB\SOCKET_LUA_LIB_001\SRC\MAIN.CPP
F:\DEVELOPMENT\PROJECTS\C++\LUA_INTER\VISUAL STUDIO\SOCKET_LUA_LIB\SOCKET_LUA_LIB_001\BUILD_WINDOWS\SOCKET_LUA_LIB.DIR\RELEASE\FUNSTATELUA_LIB.OBJ
F:\DEVELOPMENT\PROJECTS\C++\LUA_INTER\VISUAL STUDIO\SOCKET_LUA_LIB\SOCKET_LUA_LIB_001\BUILD_WINDOWS\SOCKET_LUA_LIB.DIR\RELEASE\REGISTER.OBJ
F:\DEVELOPMENT\PROJECTS\C++\LUA_INTER\VISUAL STUDIO\SOCKET_LUA_LIB\SOCKET_LUA_LIB_001\BUILD_WINDOWS\SOCKET_LUA_LIB.DIR\RELEASE\UDP.OBJ
F:\DEVELOPMENT\PROJECTS\C++\LUA_INTER\VISUAL STUDIO\SOCKET_LUA_LIB\SOCKET_LUA_LIB_001\BUILD_WINDOWS\SOCKET_LUA_LIB.DIR\RELEASE\TCP.OBJ
F:\DEVELOPMENT\PROJECTS\C++\LUA_INTER\VISUAL STUDIO\SOCKET_LUA_LIB\SOCKET_LUA_LIB_001\BUILD_WINDOWS\SOCKET_LUA_LIB.DIR\RELEASE\SOCKET.OBJ
F:\DEVELOPMENT\PROJECTS\C++\LUA_INTER\VISUAL STUDIO\SOCKET_LUA_LIB\SOCKET_LUA_LIB_001\BUILD_WINDOWS\SOCKET_LUA_LIB.DIR\RELEASE\MAIN.OBJ
^F:\DEVELOPMENT\PROJECTS\C++\LUA_INTER\VISUAL STUDIO\SOCKET_LUA_LIB\SOCKET_LUA_LIB_001\SRC\FUNSTATE\FUNSTATELUA_LIB.CPP|F:\DEVELOPMENT\PROJECTS\C++\LUA_INTER\VISUAL STUDIO\SOCKET_LUA_LIB\SOCKET_LUA_LIB_001\SRC\MAIN.CPP
F:\DEVELOPMENT\PROJECTS\C++\LUA_INTER\VISUAL STUDIO\SOCKET_LUA_LIB\SOCKET_LUA_LIB_001\BUILD_WINDOWS\SOCKET_LUA_LIB.DIR\RELEASE\MAIN.OBJ
F:\DEVELOPMENT\PROJECTS\C++\LUA_INTER\VISUAL STUDIO\SOCKET_LUA_LIB\SOCKET_LUA_LIB_001\BUILD_WINDOWS\SOCKET_LUA_LIB.DIR\RELEASE\FUNSTATELUA_LIB.OBJ
