^F:\DEVELOPMENT\PROJECTS\C++\LUA_INTER\VISUAL STUDIO\SOCKET_LUA_LIB\SOCKET_LUA_LIB_001\BUILD_WINDOWS\SOCKET_LUA_LIB.DIR\RELEASE\FUNSTATELUA_LIB.OBJ|F:\DEVELOPMENT\PROJECTS\C++\LUA_INTER\VISUAL STUDIO\SOCKET_LUA_LIB\SOCKET_LUA_LIB_001\BUILD_WINDOWS\SOCKET_LUA_LIB.DIR\RELEASE\MAIN.OBJ|F:\DEVELOPMENT\PROJECTS\C++\LUA_INTER\VISUAL STUDIO\SOCKET_LUA_LIB\SOCKET_LUA_LIB_001\BUILD_WINDOWS\SOCKET_LUA_LIB.DIR\RELEASE\REGISTER.OBJ|F:\DEVELOPMENT\PROJECTS\C++\LUA_INTER\VISUAL STUDIO\SOCKET_LUA_LIB\SOCKET_LUA_LIB_001\BUILD_WINDOWS\SOCKET_LUA_LIB.DIR\RELEASE\SOCKET.OBJ|F:\DEVELOPMENT\PROJECTS\C++\LUA_INTER\VISUAL STUDIO\SOCKET_LUA_LIB\SOCKET_LUA_LIB_001\BUILD_WINDOWS\SOCKET_LUA_LIB.DIR\RELEASE\TCP.OBJ|F:\DEVELOPMENT\PROJECTS\C++\LUA_INTER\VISUAL STUDIO\SOCKET_LUA_LIB\SOCKET_LUA_LIB_001\BUILD_WINDOWS\SOCKET_LUA_LIB.DIR\RELEASE\UDP.OBJ
F:\DEVELOPMENT\PROJECTS\C++\LUA_INTER\VISUAL STUDIO\SOCKET_LUA_LIB\SOCKET_LUA_LIB_001\RELEASE\SOCKET_LUA_LIB.DLL
F:\DEVELOPMENT\PROJECTS\C++\LUA_INTER\VISUAL STUDIO\SOCKET_LUA_LIB\SOCKET_LUA_LIB_001\BUILD_WINDOWS\SOCKET_LUA_LIB.DIR\RELEASE\SOCKET_LUA_LIB.DLL.INTERMEDIATE.MANIFEST
