^F:\DEVELOPMENT\PROJECTS\C++\LUA_INTER\VISUAL STUDIO\SOCKET_LUA_LIB\SOCKET_LUA_LIB_001\BUILD_WINDOWS\SOCKET_LUA_LIB.DIR\RELEASE\FUNSTATELUA_LIB.OBJ|F:\DEVELOPMENT\PROJECTS\C++\LUA_INTER\VISUAL STUDIO\SOCKET_LUA_LIB\SOCKET_LUA_LIB_001\BUILD_WINDOWS\SOCKET_LUA_LIB.DIR\RELEASE\MAIN.OBJ|F:\DEVELOPMENT\PROJECTS\C++\LUA_INTER\VISUAL STUDIO\SOCKET_LUA_LIB\SOCKET_LUA_LIB_001\BUILD_WINDOWS\SOCKET_LUA_LIB.DIR\RELEASE\REGISTER.OBJ|F:\DEVELOPMENT\PROJECTS\C++\LUA_INTER\VISUAL STUDIO\SOCKET_LUA_LIB\SOCKET_LUA_LIB_001\BUILD_WINDOWS\SOCKET_LUA_LIB.DIR\RELEASE\SOCKET.OBJ|F:\DEVELOPMENT\PROJECTS\C++\LUA_INTER\VISUAL STUDIO\SOCKET_LUA_LIB\SOCKET_LUA_LIB_001\BUILD_WINDOWS\SOCKET_LUA_LIB.DIR\RELEASE\TCP.OBJ|F:\DEVELOPMENT\PROJECTS\C++\LUA_INTER\VISUAL STUDIO\SOCKET_LUA_LIB\SOCKET_LUA_LIB_001\BUILD_WINDOWS\SOCKET_LUA_LIB.DIR\RELEASE\UDP.OBJ
/ERRORREPORT:PROMPT /OUT:"F:\Development\projects\C++\lua_inter\Visual Studio\socket_Lua_lib\socket_Lua_lib_001\Release\socket_Lua_lib.dll" /INCREMENTAL:NO /NOLOGO /LIBPATH:"F:/Development/projects/C++/lua_inter/Visual Studio/socket_Lua_lib/socket_Lua_lib_001/lib/bin" /LIBPATH:"F:/Development/projects/C++/lua_inter/Visual Studio/socket_Lua_lib/socket_Lua_lib_001/lib/bin/Release" kernel32.lib user32.lib gdi32.lib winspool.lib shell32.lib ole32.lib oleaut32.lib uuid.lib comdlg32.lib advapi32.lib lua52.lib ws2_32.lib /MANIFEST /ManifestFile:"socket_Lua_lib.dir\Release\socket_Lua_lib.dll.intermediate.manifest" /MANIFESTUAC:"level='asInvoker' uiAccess='false'" /PDB:"F:/Development/projects/C++/lua_inter/Visual Studio/socket_Lua_lib/socket_Lua_lib_001/Release/socket_Lua_lib.pdb" /SUBSYSTEM:CONSOLE /STACK:"10000000" /TLBID:1 /DYNAMICBASE /NXCOMPAT /IMPLIB:"F:/Development/projects/C++/lua_inter/Visual Studio/socket_Lua_lib/socket_Lua_lib_001/Release/socket_Lua_lib.lib" /MACHINE:X86 /DLL socket_Lua_lib.dir\Release\main.obj
socket_Lua_lib.dir\Release\Socket.obj
socket_Lua_lib.dir\Release\TCP.obj
socket_Lua_lib.dir\Release\UDP.obj
socket_Lua_lib.dir\Release\register.obj
socket_Lua_lib.dir\Release\funStateLua_lib.obj  /machine:X86 
