^C:\USERS\LOUCHE_P\DESKTOP\VISUAL STUDIO\LUA_INTER\LUA_INTER_010\BUILD_WINDOWS\CMAKEFILES\8AD42730451563223AE1FA7F5F8AB191\GENERATE.STAMP.RULE
C:\PROGRAM FILES (X86)\CMAKE 2.8\SHARE\CMAKE-2.8\MODULES\CMAKECCOMPILER.CMAKE.IN
C:\PROGRAM FILES (X86)\CMAKE 2.8\SHARE\CMAKE-2.8\MODULES\CMAKECCOMPILERABI.C
C:\PROGRAM FILES (X86)\CMAKE 2.8\SHARE\CMAKE-2.8\MODULES\CMAKECINFORMATION.CMAKE
C:\PROGRAM FILES (X86)\CMAKE 2.8\SHARE\CMAKE-2.8\MODULES\CMAKECXXCOMPILER.CMAKE.IN
C:\PROGRAM FILES (X86)\CMAKE 2.8\SHARE\CMAKE-2.8\MODULES\CMAKECXXCOMPILERABI.CPP
C:\PROGRAM FILES (X86)\CMAKE 2.8\SHARE\CMAKE-2.8\MODULES\CMAKECXXINFORMATION.CMAKE
C:\PROGRAM FILES (X86)\CMAKE 2.8\SHARE\CMAKE-2.8\MODULES\CMAKECLDEPS.CMAKE
C:\PROGRAM FILES (X86)\CMAKE 2.8\SHARE\CMAKE-2.8\MODULES\CMAKECOMMONLANGUAGEINCLUDE.CMAKE
C:\PROGRAM FILES (X86)\CMAKE 2.8\SHARE\CMAKE-2.8\MODULES\CMAKEDETERMINECCOMPILER.CMAKE
C:\PROGRAM FILES (X86)\CMAKE 2.8\SHARE\CMAKE-2.8\MODULES\CMAKEDETERMINECXXCOMPILER.CMAKE
C:\PROGRAM FILES (X86)\CMAKE 2.8\SHARE\CMAKE-2.8\MODULES\CMAKEDETERMINECOMPILER.CMAKE
C:\PROGRAM FILES (X86)\CMAKE 2.8\SHARE\CMAKE-2.8\MODULES\CMAKEDETERMINECOMPILERABI.CMAKE
C:\PROGRAM FILES (X86)\CMAKE 2.8\SHARE\CMAKE-2.8\MODULES\CMAKEDETERMINECOMPILERID.CMAKE
C:\PROGRAM FILES (X86)\CMAKE 2.8\SHARE\CMAKE-2.8\MODULES\CMAKEDETERMINERCCOMPILER.CMAKE
C:\PROGRAM FILES (X86)\CMAKE 2.8\SHARE\CMAKE-2.8\MODULES\CMAKEDETERMINESYSTEM.CMAKE
C:\PROGRAM FILES (X86)\CMAKE 2.8\SHARE\CMAKE-2.8\MODULES\CMAKEFINDBINUTILS.CMAKE
C:\PROGRAM FILES (X86)\CMAKE 2.8\SHARE\CMAKE-2.8\MODULES\CMAKEGENERICSYSTEM.CMAKE
C:\PROGRAM FILES (X86)\CMAKE 2.8\SHARE\CMAKE-2.8\MODULES\CMAKEPARSEIMPLICITLINKINFO.CMAKE
C:\PROGRAM FILES (X86)\CMAKE 2.8\SHARE\CMAKE-2.8\MODULES\CMAKERCCOMPILER.CMAKE.IN
C:\PROGRAM FILES (X86)\CMAKE 2.8\SHARE\CMAKE-2.8\MODULES\CMAKERCINFORMATION.CMAKE
C:\PROGRAM FILES (X86)\CMAKE 2.8\SHARE\CMAKE-2.8\MODULES\CMAKESYSTEM.CMAKE.IN
C:\PROGRAM FILES (X86)\CMAKE 2.8\SHARE\CMAKE-2.8\MODULES\CMAKESYSTEMSPECIFICINFORMATION.CMAKE
C:\PROGRAM FILES (X86)\CMAKE 2.8\SHARE\CMAKE-2.8\MODULES\CMAKETESTCCOMPILER.CMAKE
C:\PROGRAM FILES (X86)\CMAKE 2.8\SHARE\CMAKE-2.8\MODULES\CMAKETESTCXXCOMPILER.CMAKE
C:\PROGRAM FILES (X86)\CMAKE 2.8\SHARE\CMAKE-2.8\MODULES\CMAKETESTCOMPILERCOMMON.CMAKE
C:\PROGRAM FILES (X86)\CMAKE 2.8\SHARE\CMAKE-2.8\MODULES\CMAKETESTRCCOMPILER.CMAKE
C:\PROGRAM FILES (X86)\CMAKE 2.8\SHARE\CMAKE-2.8\MODULES\CMAKEVS10FINDMAKE.CMAKE
C:\PROGRAM FILES (X86)\CMAKE 2.8\SHARE\CMAKE-2.8\MODULES\COMPILERID\VS-10.VCXPROJ.IN
C:\PROGRAM FILES (X86)\CMAKE 2.8\SHARE\CMAKE-2.8\MODULES\PLATFORM\WINDOWS-CXX.CMAKE
C:\PROGRAM FILES (X86)\CMAKE 2.8\SHARE\CMAKE-2.8\MODULES\PLATFORM\WINDOWS-MSVC-C.CMAKE
C:\PROGRAM FILES (X86)\CMAKE 2.8\SHARE\CMAKE-2.8\MODULES\PLATFORM\WINDOWS-MSVC-CXX.CMAKE
C:\PROGRAM FILES (X86)\CMAKE 2.8\SHARE\CMAKE-2.8\MODULES\PLATFORM\WINDOWS-MSVC.CMAKE
C:\PROGRAM FILES (X86)\CMAKE 2.8\SHARE\CMAKE-2.8\MODULES\PLATFORM\WINDOWS.CMAKE
C:\PROGRAM FILES (X86)\CMAKE 2.8\SHARE\CMAKE-2.8\MODULES\PLATFORM\WINDOWSPATHS.CMAKE
C:\USERS\LOUCHE_P\DESKTOP\VISUAL STUDIO\LUA_INTER\LUA_INTER_010\CMAKELISTS.TXT
C:\USERS\LOUCHE_P\DESKTOP\VISUAL STUDIO\LUA_INTER\LUA_INTER_010\BUILD_WINDOWS\CMAKEFILES\2.8.10.2\CMAKECCOMPILER.CMAKE
C:\USERS\LOUCHE_P\DESKTOP\VISUAL STUDIO\LUA_INTER\LUA_INTER_010\BUILD_WINDOWS\CMAKEFILES\2.8.10.2\CMAKECXXCOMPILER.CMAKE
C:\USERS\LOUCHE_P\DESKTOP\VISUAL STUDIO\LUA_INTER\LUA_INTER_010\BUILD_WINDOWS\CMAKEFILES\2.8.10.2\CMAKERCCOMPILER.CMAKE
C:\USERS\LOUCHE_P\DESKTOP\VISUAL STUDIO\LUA_INTER\LUA_INTER_010\BUILD_WINDOWS\CMAKEFILES\2.8.10.2\CMAKESYSTEM.CMAKE
^C:\USERS\LOUCHE_P\DESKTOP\VISUAL STUDIO\LUA_INTER\LUA_INTER_010\BUILD_WINDOWS\CMAKEFILES\8AD42730451563223AE1FA7F5F8AB191\ZERO_CHECK.RULE
