^F:\DEVELOPMENT\PROJECTS\C++\LUA_INTER\VISUAL STUDIO\SOCKET_LUA_LIB\SOCKET_LUA_LIB_001\BUILD_WINDOWS\CMAKEFILES\49D210CCCAD96B47D94A1A0F6F304D2B\GENERATE.STAMP.RULE
setlocal
"C:\Program Files\CMake 2.8\bin\cmake.exe" "-HF:/Development/projects/C++/lua_inter/Visual Studio/socket_Lua_lib/socket_Lua_lib_001" "-BF:/Development/projects/C++/lua_inter/Visual Studio/socket_Lua_lib/socket_Lua_lib_001/build_windows" --check-stamp-list CMakeFiles/generate.stamp.list --vs-solution-file "F:\Development\projects\C++\lua_inter\Visual Studio\socket_Lua_lib\socket_Lua_lib_001\build_windows\socket_Lua_lib.sln"
if %errorlevel% neq 0 goto :cmEnd
:cmEnd
endlocal & call :cmErrorLevel %errorlevel% & goto :cmDone
:cmErrorLevel
exit /b %1
:cmDone
if %errorlevel% neq 0 goto :VCEnd
^F:\DEVELOPMENT\PROJECTS\C++\LUA_INTER\VISUAL STUDIO\SOCKET_LUA_LIB\SOCKET_LUA_LIB_001\BUILD_WINDOWS\CMAKEFILES\49D210CCCAD96B47D94A1A0F6F304D2B\ZERO_CHECK.RULE
setlocal
:cmEnd
endlocal & call :cmErrorLevel %errorlevel% & goto :cmDone
:cmErrorLevel
exit /b %1
:cmDone
if %errorlevel% neq 0 goto :VCEnd
