^F:\DEVELOPMENT\PROJECTS\C++\LUA_INTER\VISUAL STUDIO\SOCKET_LUA_LIB\SOCKET_LUA_LIB_001\BUILD_WINDOWS\CMAKEFILES\49D210CCCAD96B47D94A1A0F6F304D2B\GENERATE.STAMP.RULE
C:\PROGRAM FILES\CMAKE 2.8\SHARE\CMAKE-2.8\MODULES\CMAKECCOMPILER.CMAKE.IN
C:\PROGRAM FILES\CMAKE 2.8\SHARE\CMAKE-2.8\MODULES\CMAKECCOMPILERABI.C
C:\PROGRAM FILES\CMAKE 2.8\SHARE\CMAKE-2.8\MODULES\CMAKECINFORMATION.CMAKE
C:\PROGRAM FILES\CMAKE 2.8\SHARE\CMAKE-2.8\MODULES\CMAKECXXCOMPILER.CMAKE.IN
C:\PROGRAM FILES\CMAKE 2.8\SHARE\CMAKE-2.8\MODULES\CMAKECXXCOMPILERABI.CPP
C:\PROGRAM FILES\CMAKE 2.8\SHARE\CMAKE-2.8\MODULES\CMAKECXXINFORMATION.CMAKE
C:\PROGRAM FILES\CMAKE 2.8\SHARE\CMAKE-2.8\MODULES\CMAKECLDEPS.CMAKE
C:\PROGRAM FILES\CMAKE 2.8\SHARE\CMAKE-2.8\MODULES\CMAKECOMMONLANGUAGEINCLUDE.CMAKE
C:\PROGRAM FILES\CMAKE 2.8\SHARE\CMAKE-2.8\MODULES\CMAKEDETERMINECCOMPILER.CMAKE
C:\PROGRAM FILES\CMAKE 2.8\SHARE\CMAKE-2.8\MODULES\CMAKEDETERMINECXXCOMPILER.CMAKE
C:\PROGRAM FILES\CMAKE 2.8\SHARE\CMAKE-2.8\MODULES\CMAKEDETERMINECOMPILER.CMAKE
C:\PROGRAM FILES\CMAKE 2.8\SHARE\CMAKE-2.8\MODULES\CMAKEDETERMINECOMPILERABI.CMAKE
C:\PROGRAM FILES\CMAKE 2.8\SHARE\CMAKE-2.8\MODULES\CMAKEDETERMINECOMPILERID.CMAKE
C:\PROGRAM FILES\CMAKE 2.8\SHARE\CMAKE-2.8\MODULES\CMAKEDETERMINERCCOMPILER.CMAKE
C:\PROGRAM FILES\CMAKE 2.8\SHARE\CMAKE-2.8\MODULES\CMAKEDETERMINESYSTEM.CMAKE
C:\PROGRAM FILES\CMAKE 2.8\SHARE\CMAKE-2.8\MODULES\CMAKEFINDBINUTILS.CMAKE
C:\PROGRAM FILES\CMAKE 2.8\SHARE\CMAKE-2.8\MODULES\CMAKEGENERICSYSTEM.CMAKE
C:\PROGRAM FILES\CMAKE 2.8\SHARE\CMAKE-2.8\MODULES\CMAKEPARSEIMPLICITLINKINFO.CMAKE
C:\PROGRAM FILES\CMAKE 2.8\SHARE\CMAKE-2.8\MODULES\CMAKERCCOMPILER.CMAKE.IN
C:\PROGRAM FILES\CMAKE 2.8\SHARE\CMAKE-2.8\MODULES\CMAKERCINFORMATION.CMAKE
C:\PROGRAM FILES\CMAKE 2.8\SHARE\CMAKE-2.8\MODULES\CMAKESYSTEM.CMAKE.IN
C:\PROGRAM FILES\CMAKE 2.8\SHARE\CMAKE-2.8\MODULES\CMAKESYSTEMSPECIFICINFORMATION.CMAKE
C:\PROGRAM FILES\CMAKE 2.8\SHARE\CMAKE-2.8\MODULES\CMAKETESTCCOMPILER.CMAKE
C:\PROGRAM FILES\CMAKE 2.8\SHARE\CMAKE-2.8\MODULES\CMAKETESTCXXCOMPILER.CMAKE
C:\PROGRAM FILES\CMAKE 2.8\SHARE\CMAKE-2.8\MODULES\CMAKETESTCOMPILERCOMMON.CMAKE
C:\PROGRAM FILES\CMAKE 2.8\SHARE\CMAKE-2.8\MODULES\CMAKETESTRCCOMPILER.CMAKE
C:\PROGRAM FILES\CMAKE 2.8\SHARE\CMAKE-2.8\MODULES\CMAKEVS10FINDMAKE.CMAKE
C:\PROGRAM FILES\CMAKE 2.8\SHARE\CMAKE-2.8\MODULES\COMPILERID\VS-10.VCXPROJ.IN
C:\PROGRAM FILES\CMAKE 2.8\SHARE\CMAKE-2.8\MODULES\PLATFORM\WINDOWS-CXX.CMAKE
C:\PROGRAM FILES\CMAKE 2.8\SHARE\CMAKE-2.8\MODULES\PLATFORM\WINDOWS-MSVC-C.CMAKE
C:\PROGRAM FILES\CMAKE 2.8\SHARE\CMAKE-2.8\MODULES\PLATFORM\WINDOWS-MSVC-CXX.CMAKE
C:\PROGRAM FILES\CMAKE 2.8\SHARE\CMAKE-2.8\MODULES\PLATFORM\WINDOWS-MSVC.CMAKE
C:\PROGRAM FILES\CMAKE 2.8\SHARE\CMAKE-2.8\MODULES\PLATFORM\WINDOWS.CMAKE
C:\PROGRAM FILES\CMAKE 2.8\SHARE\CMAKE-2.8\MODULES\PLATFORM\WINDOWSPATHS.CMAKE
F:\DEVELOPMENT\PROJECTS\C++\LUA_INTER\VISUAL STUDIO\SOCKET_LUA_LIB\SOCKET_LUA_LIB_001\CMAKELISTS.TXT
F:\DEVELOPMENT\PROJECTS\C++\LUA_INTER\VISUAL STUDIO\SOCKET_LUA_LIB\SOCKET_LUA_LIB_001\BUILD_WINDOWS\CMAKEFILES\2.8.10.2\CMAKECCOMPILER.CMAKE
F:\DEVELOPMENT\PROJECTS\C++\LUA_INTER\VISUAL STUDIO\SOCKET_LUA_LIB\SOCKET_LUA_LIB_001\BUILD_WINDOWS\CMAKEFILES\2.8.10.2\CMAKECXXCOMPILER.CMAKE
F:\DEVELOPMENT\PROJECTS\C++\LUA_INTER\VISUAL STUDIO\SOCKET_LUA_LIB\SOCKET_LUA_LIB_001\BUILD_WINDOWS\CMAKEFILES\2.8.10.2\CMAKERCCOMPILER.CMAKE
F:\DEVELOPMENT\PROJECTS\C++\LUA_INTER\VISUAL STUDIO\SOCKET_LUA_LIB\SOCKET_LUA_LIB_001\BUILD_WINDOWS\CMAKEFILES\2.8.10.2\CMAKESYSTEM.CMAKE
^F:\DEVELOPMENT\PROJECTS\C++\LUA_INTER\VISUAL STUDIO\SOCKET_LUA_LIB\SOCKET_LUA_LIB_001\BUILD_WINDOWS\CMAKEFILES\49D210CCCAD96B47D94A1A0F6F304D2B\ZERO_CHECK.RULE
