^C:\USERS\LOUCHE_P\DESKTOP\VISUAL STUDIO\LUA_INTER\LUA_INTER_010\BUILD_WINDOWS\LUA_INTER.DIR\RELEASE\CONSOLE.OBJ|C:\USERS\LOUCHE_P\DESKTOP\VISUAL STUDIO\LUA_INTER\LUA_INTER_010\BUILD_WINDOWS\LUA_INTER.DIR\RELEASE\FUNSTATELUA.OBJ|C:\USERS\LOUCHE_P\DESKTOP\VISUAL STUDIO\LUA_INTER\LUA_INTER_010\BUILD_WINDOWS\LUA_INTER.DIR\RELEASE\LUA_INTER.OBJ|C:\USERS\LOUCHE_P\DESKTOP\VISUAL STUDIO\LUA_INTER\LUA_INTER_010\BUILD_WINDOWS\LUA_INTER.DIR\RELEASE\MAIN.OBJ|C:\USERS\LOUCHE_P\DESKTOP\VISUAL STUDIO\LUA_INTER\LUA_INTER_010\BUILD_WINDOWS\LUA_INTER.DIR\RELEASE\PRINTLOG.OBJ|C:\USERS\LOUCHE_P\DESKTOP\VISUAL STUDIO\LUA_INTER\LUA_INTER_010\BUILD_WINDOWS\LUA_INTER.DIR\RELEASE\REGISTER.OBJ|C:\USERS\LOUCHE_P\DESKTOP\VISUAL STUDIO\LUA_INTER\LUA_INTER_010\BUILD_WINDOWS\LUA_INTER.DIR\RELEASE\STD_FUN.OBJ|C:\USERS\LOUCHE_P\DESKTOP\VISUAL STUDIO\LUA_INTER\LUA_INTER_010\BUILD_WINDOWS\LUA_INTER.DIR\RELEASE\UNDER_FUNSTATELUA.OBJ
C:\USERS\LOUCHE_P\DESKTOP\VISUAL STUDIO\LUA_INTER\LUA_INTER_010\RELEASE\LUA_INTER.EXE
C:\USERS\LOUCHE_P\DESKTOP\VISUAL STUDIO\LUA_INTER\LUA_INTER_010\BUILD_WINDOWS\LUA_INTER.DIR\RELEASE\LUA_INTER.EXE.INTERMEDIATE.MANIFEST
