^C:\USERS\LOUCHE_P\DESKTOP\VISUAL STUDIO\LUA_INTER\LUA_INTER_010\BUILD_WINDOWS\LUA_INTER.DIR\RELEASE\CONSOLE.OBJ|C:\USERS\LOUCHE_P\DESKTOP\VISUAL STUDIO\LUA_INTER\LUA_INTER_010\BUILD_WINDOWS\LUA_INTER.DIR\RELEASE\FUNSTATELUA.OBJ|C:\USERS\LOUCHE_P\DESKTOP\VISUAL STUDIO\LUA_INTER\LUA_INTER_010\BUILD_WINDOWS\LUA_INTER.DIR\RELEASE\LUA_INTER.OBJ|C:\USERS\LOUCHE_P\DESKTOP\VISUAL STUDIO\LUA_INTER\LUA_INTER_010\BUILD_WINDOWS\LUA_INTER.DIR\RELEASE\MAIN.OBJ|C:\USERS\LOUCHE_P\DESKTOP\VISUAL STUDIO\LUA_INTER\LUA_INTER_010\BUILD_WINDOWS\LUA_INTER.DIR\RELEASE\PRINTLOG.OBJ|C:\USERS\LOUCHE_P\DESKTOP\VISUAL STUDIO\LUA_INTER\LUA_INTER_010\BUILD_WINDOWS\LUA_INTER.DIR\RELEASE\REGISTER.OBJ|C:\USERS\LOUCHE_P\DESKTOP\VISUAL STUDIO\LUA_INTER\LUA_INTER_010\BUILD_WINDOWS\LUA_INTER.DIR\RELEASE\STD_FUN.OBJ|C:\USERS\LOUCHE_P\DESKTOP\VISUAL STUDIO\LUA_INTER\LUA_INTER_010\BUILD_WINDOWS\LUA_INTER.DIR\RELEASE\UNDER_FUNSTATELUA.OBJ
C:\PROGRAM FILES (X86)\MICROSOFT SDKS\WINDOWS\V7.0A\LIB\KERNEL32.LIB
C:\PROGRAM FILES (X86)\MICROSOFT SDKS\WINDOWS\V7.0A\LIB\USER32.LIB
C:\PROGRAM FILES (X86)\MICROSOFT SDKS\WINDOWS\V7.0A\LIB\GDI32.LIB
C:\PROGRAM FILES (X86)\MICROSOFT SDKS\WINDOWS\V7.0A\LIB\WINSPOOL.LIB
C:\PROGRAM FILES (X86)\MICROSOFT SDKS\WINDOWS\V7.0A\LIB\SHELL32.LIB
C:\PROGRAM FILES (X86)\MICROSOFT SDKS\WINDOWS\V7.0A\LIB\OLE32.LIB
C:\PROGRAM FILES (X86)\MICROSOFT SDKS\WINDOWS\V7.0A\LIB\OLEAUT32.LIB
C:\PROGRAM FILES (X86)\MICROSOFT SDKS\WINDOWS\V7.0A\LIB\UUID.LIB
C:\PROGRAM FILES (X86)\MICROSOFT SDKS\WINDOWS\V7.0A\LIB\COMDLG32.LIB
C:\PROGRAM FILES (X86)\MICROSOFT SDKS\WINDOWS\V7.0A\LIB\ADVAPI32.LIB
C:\USERS\LOUCHE_P\DESKTOP\VISUAL STUDIO\LUA_INTER\LUA_INTER_010\LIB\BIN\LUA52.LIB
C:\USERS\LOUCHE_P\DESKTOP\VISUAL STUDIO\LUA_INTER\LUA_INTER_010\BUILD_WINDOWS\LUA_INTER.DIR\RELEASE\MAIN.OBJ
C:\USERS\LOUCHE_P\DESKTOP\VISUAL STUDIO\LUA_INTER\LUA_INTER_010\BUILD_WINDOWS\LUA_INTER.DIR\RELEASE\STD_FUN.OBJ
C:\USERS\LOUCHE_P\DESKTOP\VISUAL STUDIO\LUA_INTER\LUA_INTER_010\BUILD_WINDOWS\LUA_INTER.DIR\RELEASE\PRINTLOG.OBJ
C:\USERS\LOUCHE_P\DESKTOP\VISUAL STUDIO\LUA_INTER\LUA_INTER_010\BUILD_WINDOWS\LUA_INTER.DIR\RELEASE\LUA_INTER.OBJ
C:\USERS\LOUCHE_P\DESKTOP\VISUAL STUDIO\LUA_INTER\LUA_INTER_010\BUILD_WINDOWS\LUA_INTER.DIR\RELEASE\CONSOLE.OBJ
C:\USERS\LOUCHE_P\DESKTOP\VISUAL STUDIO\LUA_INTER\LUA_INTER_010\BUILD_WINDOWS\LUA_INTER.DIR\RELEASE\REGISTER.OBJ
C:\USERS\LOUCHE_P\DESKTOP\VISUAL STUDIO\LUA_INTER\LUA_INTER_010\BUILD_WINDOWS\LUA_INTER.DIR\RELEASE\FUNSTATELUA.OBJ
C:\USERS\LOUCHE_P\DESKTOP\VISUAL STUDIO\LUA_INTER\LUA_INTER_010\BUILD_WINDOWS\LUA_INTER.DIR\RELEASE\UNDER_FUNSTATELUA.OBJ
C:\WINDOWS\GLOBALIZATION\SORTING\SORTDEFAULT.NLS
C:\PROGRAM FILES (X86)\MICROSOFT VISUAL STUDIO 10.0\VC\LIB\MSVCPRT.LIB
C:\PROGRAM FILES (X86)\MICROSOFT VISUAL STUDIO 10.0\VC\LIB\MSVCRT.LIB
C:\PROGRAM FILES (X86)\MICROSOFT VISUAL STUDIO 10.0\VC\LIB\OLDNAMES.LIB
C:\PROGRAM FILES (X86)\MICROSOFT VISUAL STUDIO 10.0\VC\LIB\LIBCMT.LIB
C:\PROGRAM FILES (X86)\MICROSOFT VISUAL STUDIO 10.0\VC\BIN\1033\LINKUI.DLL
C:\WINDOWS\SYSTEM32\TZRES.DLL
