^F:\DEVELOPMENT\PROJECTS\C++\LUA_INTER\VISUAL STUDIO\SDL_LUA_LIB\SDL_LUA_LIB_001\SRC\MAIN.CPP
C:\PROGRAM FILES\MICROSOFT VISUAL STUDIO 10.0\VC\INCLUDE\STRING
C:\PROGRAM FILES\MICROSOFT VISUAL STUDIO 10.0\VC\INCLUDE\ISTREAM
C:\PROGRAM FILES\MICROSOFT VISUAL STUDIO 10.0\VC\INCLUDE\OSTREAM
C:\PROGRAM FILES\MICROSOFT VISUAL STUDIO 10.0\VC\INCLUDE\IOS
C:\PROGRAM FILES\MICROSOFT VISUAL STUDIO 10.0\VC\INCLUDE\XLOCNUM
C:\PROGRAM FILES\MICROSOFT VISUAL STUDIO 10.0\VC\INCLUDE\CLIMITS
C:\PROGRAM FILES\MICROSOFT VISUAL STUDIO 10.0\VC\INCLUDE\YVALS.H
C:\PROGRAM FILES\MICROSOFT VISUAL STUDIO 10.0\VC\INCLUDE\CRTDEFS.H
C:\PROGRAM FILES\MICROSOFT VISUAL STUDIO 10.0\VC\INCLUDE\SAL.H
C:\PROGRAM FILES\MICROSOFT VISUAL STUDIO 10.0\VC\INCLUDE\CODEANALYSIS\SOURCEANNOTATIONS.H
C:\PROGRAM FILES\MICROSOFT VISUAL STUDIO 10.0\VC\INCLUDE\VADEFS.H
C:\PROGRAM FILES\MICROSOFT VISUAL STUDIO 10.0\VC\INCLUDE\USE_ANSI.H
C:\PROGRAM FILES\MICROSOFT VISUAL STUDIO 10.0\VC\INCLUDE\LIMITS.H
C:\PROGRAM FILES\MICROSOFT VISUAL STUDIO 10.0\VC\INCLUDE\CMATH
C:\PROGRAM FILES\MICROSOFT VISUAL STUDIO 10.0\VC\INCLUDE\MATH.H
C:\PROGRAM FILES\MICROSOFT VISUAL STUDIO 10.0\VC\INCLUDE\CSTDIO
C:\PROGRAM FILES\MICROSOFT VISUAL STUDIO 10.0\VC\INCLUDE\STDIO.H
C:\PROGRAM FILES\MICROSOFT VISUAL STUDIO 10.0\VC\INCLUDE\SWPRINTF.INL
C:\PROGRAM FILES\MICROSOFT VISUAL STUDIO 10.0\VC\INCLUDE\CSTDLIB
C:\PROGRAM FILES\MICROSOFT VISUAL STUDIO 10.0\VC\INCLUDE\STDLIB.H
C:\PROGRAM FILES\MICROSOFT VISUAL STUDIO 10.0\VC\INCLUDE\STREAMBUF
C:\PROGRAM FILES\MICROSOFT VISUAL STUDIO 10.0\VC\INCLUDE\XIOSBASE
C:\PROGRAM FILES\MICROSOFT VISUAL STUDIO 10.0\VC\INCLUDE\XLOCALE
C:\PROGRAM FILES\MICROSOFT VISUAL STUDIO 10.0\VC\INCLUDE\CSTRING
C:\PROGRAM FILES\MICROSOFT VISUAL STUDIO 10.0\VC\INCLUDE\STRING.H
C:\PROGRAM FILES\MICROSOFT VISUAL STUDIO 10.0\VC\INCLUDE\STDEXCEPT
C:\PROGRAM FILES\MICROSOFT VISUAL STUDIO 10.0\VC\INCLUDE\EXCEPTION
C:\PROGRAM FILES\MICROSOFT VISUAL STUDIO 10.0\VC\INCLUDE\XSTDDEF
C:\PROGRAM FILES\MICROSOFT VISUAL STUDIO 10.0\VC\INCLUDE\CSTDDEF
C:\PROGRAM FILES\MICROSOFT VISUAL STUDIO 10.0\VC\INCLUDE\STDDEF.H
C:\PROGRAM FILES\MICROSOFT VISUAL STUDIO 10.0\VC\INCLUDE\EH.H
C:\PROGRAM FILES\MICROSOFT VISUAL STUDIO 10.0\VC\INCLUDE\MALLOC.H
C:\PROGRAM FILES\MICROSOFT VISUAL STUDIO 10.0\VC\INCLUDE\XSTRING
C:\PROGRAM FILES\MICROSOFT VISUAL STUDIO 10.0\VC\INCLUDE\XMEMORY
C:\PROGRAM FILES\MICROSOFT VISUAL STUDIO 10.0\VC\INCLUDE\NEW
C:\PROGRAM FILES\MICROSOFT VISUAL STUDIO 10.0\VC\INCLUDE\XUTILITY
C:\PROGRAM FILES\MICROSOFT VISUAL STUDIO 10.0\VC\INCLUDE\UTILITY
C:\PROGRAM FILES\MICROSOFT VISUAL STUDIO 10.0\VC\INCLUDE\IOSFWD
C:\PROGRAM FILES\MICROSOFT VISUAL STUDIO 10.0\VC\INCLUDE\CWCHAR
C:\PROGRAM FILES\MICROSOFT VISUAL STUDIO 10.0\VC\INCLUDE\WCHAR.H
C:\PROGRAM FILES\MICROSOFT VISUAL STUDIO 10.0\VC\INCLUDE\WTIME.INL
C:\PROGRAM FILES\MICROSOFT VISUAL STUDIO 10.0\VC\INCLUDE\CRTDBG.H
C:\PROGRAM FILES\MICROSOFT VISUAL STUDIO 10.0\VC\INCLUDE\TYPE_TRAITS
C:\PROGRAM FILES\MICROSOFT VISUAL STUDIO 10.0\VC\INCLUDE\LIMITS
C:\PROGRAM FILES\MICROSOFT VISUAL STUDIO 10.0\VC\INCLUDE\YMATH.H
C:\PROGRAM FILES\MICROSOFT VISUAL STUDIO 10.0\VC\INCLUDE\CFLOAT
C:\PROGRAM FILES\MICROSOFT VISUAL STUDIO 10.0\VC\INCLUDE\FLOAT.H
C:\PROGRAM FILES\MICROSOFT VISUAL STUDIO 10.0\VC\INCLUDE\CRTWRN.H
C:\PROGRAM FILES\MICROSOFT VISUAL STUDIO 10.0\VC\INCLUDE\XTR1COMMON
C:\PROGRAM FILES\MICROSOFT VISUAL STUDIO 10.0\VC\INCLUDE\XFWRAP
C:\PROGRAM FILES\MICROSOFT VISUAL STUDIO 10.0\VC\INCLUDE\XFWRAP1
C:\PROGRAM FILES\MICROSOFT VISUAL STUDIO 10.0\VC\INCLUDE\XXTYPE_TRAITS
C:\PROGRAM FILES\MICROSOFT VISUAL STUDIO 10.0\VC\INCLUDE\TYPEINFO
C:\PROGRAM FILES\MICROSOFT VISUAL STUDIO 10.0\VC\INCLUDE\XLOCINFO
C:\PROGRAM FILES\MICROSOFT VISUAL STUDIO 10.0\VC\INCLUDE\XLOCINFO.H
C:\PROGRAM FILES\MICROSOFT VISUAL STUDIO 10.0\VC\INCLUDE\CTYPE.H
C:\PROGRAM FILES\MICROSOFT VISUAL STUDIO 10.0\VC\INCLUDE\LOCALE.H
C:\PROGRAM FILES\MICROSOFT VISUAL STUDIO 10.0\VC\INCLUDE\XDEBUG
C:\PROGRAM FILES\MICROSOFT VISUAL STUDIO 10.0\VC\INCLUDE\SYSTEM_ERROR
C:\PROGRAM FILES\MICROSOFT VISUAL STUDIO 10.0\VC\INCLUDE\CERRNO
C:\PROGRAM FILES\MICROSOFT VISUAL STUDIO 10.0\VC\INCLUDE\ERRNO.H
C:\PROGRAM FILES\MICROSOFT VISUAL STUDIO 10.0\VC\INCLUDE\SHARE.H
F:\DEVELOPMENT\PROJECTS\C++\LUA_INTER\VISUAL STUDIO\SDL_LUA_LIB\SDL_LUA_LIB_001\LIB\INC\SDL\SDL.H
F:\DEVELOPMENT\PROJECTS\C++\LUA_INTER\VISUAL STUDIO\SDL_LUA_LIB\SDL_LUA_LIB_001\LIB\INC\SDL\SDL_MAIN.H
F:\DEVELOPMENT\PROJECTS\C++\LUA_INTER\VISUAL STUDIO\SDL_LUA_LIB\SDL_LUA_LIB_001\LIB\INC\SDL\SDL_STDINC.H
F:\DEVELOPMENT\PROJECTS\C++\LUA_INTER\VISUAL STUDIO\SDL_LUA_LIB\SDL_LUA_LIB_001\LIB\INC\SDL\SDL_CONFIG.H
F:\DEVELOPMENT\PROJECTS\C++\LUA_INTER\VISUAL STUDIO\SDL_LUA_LIB\SDL_LUA_LIB_001\LIB\INC\SDL\SDL_PLATFORM.H
F:\DEVELOPMENT\PROJECTS\C++\LUA_INTER\VISUAL STUDIO\SDL_LUA_LIB\SDL_LUA_LIB_001\LIB\INC\SDL\SDL_CONFIG_WIN32.H
C:\PROGRAM FILES\MICROSOFT VISUAL STUDIO 10.0\VC\INCLUDE\STDARG.H
F:\DEVELOPMENT\PROJECTS\C++\LUA_INTER\VISUAL STUDIO\SDL_LUA_LIB\SDL_LUA_LIB_001\LIB\INC\SDL\BEGIN_CODE.H
F:\DEVELOPMENT\PROJECTS\C++\LUA_INTER\VISUAL STUDIO\SDL_LUA_LIB\SDL_LUA_LIB_001\LIB\INC\SDL\CLOSE_CODE.H
F:\DEVELOPMENT\PROJECTS\C++\LUA_INTER\VISUAL STUDIO\SDL_LUA_LIB\SDL_LUA_LIB_001\LIB\INC\SDL\SDL_AUDIO.H
F:\DEVELOPMENT\PROJECTS\C++\LUA_INTER\VISUAL STUDIO\SDL_LUA_LIB\SDL_LUA_LIB_001\LIB\INC\SDL\SDL_ERROR.H
F:\DEVELOPMENT\PROJECTS\C++\LUA_INTER\VISUAL STUDIO\SDL_LUA_LIB\SDL_LUA_LIB_001\LIB\INC\SDL\SDL_ENDIAN.H
F:\DEVELOPMENT\PROJECTS\C++\LUA_INTER\VISUAL STUDIO\SDL_LUA_LIB\SDL_LUA_LIB_001\LIB\INC\SDL\SDL_MUTEX.H
F:\DEVELOPMENT\PROJECTS\C++\LUA_INTER\VISUAL STUDIO\SDL_LUA_LIB\SDL_LUA_LIB_001\LIB\INC\SDL\SDL_THREAD.H
F:\DEVELOPMENT\PROJECTS\C++\LUA_INTER\VISUAL STUDIO\SDL_LUA_LIB\SDL_LUA_LIB_001\LIB\INC\SDL\SDL_RWOPS.H
F:\DEVELOPMENT\PROJECTS\C++\LUA_INTER\VISUAL STUDIO\SDL_LUA_LIB\SDL_LUA_LIB_001\LIB\INC\SDL\SDL_CDROM.H
F:\DEVELOPMENT\PROJECTS\C++\LUA_INTER\VISUAL STUDIO\SDL_LUA_LIB\SDL_LUA_LIB_001\LIB\INC\SDL\SDL_CPUINFO.H
F:\DEVELOPMENT\PROJECTS\C++\LUA_INTER\VISUAL STUDIO\SDL_LUA_LIB\SDL_LUA_LIB_001\LIB\INC\SDL\SDL_EVENTS.H
F:\DEVELOPMENT\PROJECTS\C++\LUA_INTER\VISUAL STUDIO\SDL_LUA_LIB\SDL_LUA_LIB_001\LIB\INC\SDL\SDL_ACTIVE.H
F:\DEVELOPMENT\PROJECTS\C++\LUA_INTER\VISUAL STUDIO\SDL_LUA_LIB\SDL_LUA_LIB_001\LIB\INC\SDL\SDL_KEYBOARD.H
F:\DEVELOPMENT\PROJECTS\C++\LUA_INTER\VISUAL STUDIO\SDL_LUA_LIB\SDL_LUA_LIB_001\LIB\INC\SDL\SDL_KEYSYM.H
F:\DEVELOPMENT\PROJECTS\C++\LUA_INTER\VISUAL STUDIO\SDL_LUA_LIB\SDL_LUA_LIB_001\LIB\INC\SDL\SDL_MOUSE.H
F:\DEVELOPMENT\PROJECTS\C++\LUA_INTER\VISUAL STUDIO\SDL_LUA_LIB\SDL_LUA_LIB_001\LIB\INC\SDL\SDL_VIDEO.H
F:\DEVELOPMENT\PROJECTS\C++\LUA_INTER\VISUAL STUDIO\SDL_LUA_LIB\SDL_LUA_LIB_001\LIB\INC\SDL\SDL_JOYSTICK.H
F:\DEVELOPMENT\PROJECTS\C++\LUA_INTER\VISUAL STUDIO\SDL_LUA_LIB\SDL_LUA_LIB_001\LIB\INC\SDL\SDL_QUIT.H
F:\DEVELOPMENT\PROJECTS\C++\LUA_INTER\VISUAL STUDIO\SDL_LUA_LIB\SDL_LUA_LIB_001\LIB\INC\SDL\SDL_LOADSO.H
F:\DEVELOPMENT\PROJECTS\C++\LUA_INTER\VISUAL STUDIO\SDL_LUA_LIB\SDL_LUA_LIB_001\LIB\INC\SDL\SDL_TIMER.H
F:\DEVELOPMENT\PROJECTS\C++\LUA_INTER\VISUAL STUDIO\SDL_LUA_LIB\SDL_LUA_LIB_001\LIB\INC\SDL\SDL_VERSION.H
F:\DEVELOPMENT\PROJECTS\C++\LUA_INTER\VISUAL STUDIO\SDL_LUA_LIB\SDL_LUA_LIB_001\LIB\INC\LUA\LUA.HPP
F:\DEVELOPMENT\PROJECTS\C++\LUA_INTER\VISUAL STUDIO\SDL_LUA_LIB\SDL_LUA_LIB_001\LIB\INC\LUA\LUA.H
F:\DEVELOPMENT\PROJECTS\C++\LUA_INTER\VISUAL STUDIO\SDL_LUA_LIB\SDL_LUA_LIB_001\LIB\INC\LUA\LUACONF.H
F:\DEVELOPMENT\PROJECTS\C++\LUA_INTER\VISUAL STUDIO\SDL_LUA_LIB\SDL_LUA_LIB_001\LIB\INC\LUA\LUALIB.H
F:\DEVELOPMENT\PROJECTS\C++\LUA_INTER\VISUAL STUDIO\SDL_LUA_LIB\SDL_LUA_LIB_001\LIB\INC\LUA\LAUXLIB.H
F:\DEVELOPMENT\PROJECTS\C++\LUA_INTER\VISUAL STUDIO\SDL_LUA_LIB\SDL_LUA_LIB_001\INC\USUAL\PRINTLOG.HH
F:\DEVELOPMENT\PROJECTS\C++\LUA_INTER\VISUAL STUDIO\SDL_LUA_LIB\SDL_LUA_LIB_001\INC\FUNSTATE\FUNSTATELUA_LIB.HH
F:\DEVELOPMENT\PROJECTS\C++\LUA_INTER\VISUAL STUDIO\SDL_LUA_LIB\SDL_LUA_LIB_001\INC\FUNSTATE\REGISTER.HH
F:\DEVELOPMENT\PROJECTS\C++\LUA_INTER\VISUAL STUDIO\SDL_LUA_LIB\SDL_LUA_LIB_001\INC\I_LUA_INTER.HH
C:\PROGRAM FILES\MICROSOFT VISUAL STUDIO 10.0\VC\INCLUDE\MAP
C:\PROGRAM FILES\MICROSOFT VISUAL STUDIO 10.0\VC\INCLUDE\XTREE
C:\PROGRAM FILES\MICROSOFT VISUAL STUDIO 10.0\VC\INCLUDE\XFUNCTIONAL
C:\PROGRAM FILES\MICROSOFT VISUAL STUDIO 10.0\VC\INCLUDE\MEMORY
C:\PROGRAM FILES\MICROSOFT VISUAL STUDIO 10.0\VC\INCLUDE\INTRIN.H
C:\PROGRAM FILES\MICROSOFT VISUAL STUDIO 10.0\VC\INCLUDE\SETJMP.H
C:\PROGRAM FILES\MICROSOFT VISUAL STUDIO 10.0\VC\INCLUDE\IMMINTRIN.H
C:\PROGRAM FILES\MICROSOFT VISUAL STUDIO 10.0\VC\INCLUDE\WMMINTRIN.H
C:\PROGRAM FILES\MICROSOFT VISUAL STUDIO 10.0\VC\INCLUDE\NMMINTRIN.H
C:\PROGRAM FILES\MICROSOFT VISUAL STUDIO 10.0\VC\INCLUDE\SMMINTRIN.H
C:\PROGRAM FILES\MICROSOFT VISUAL STUDIO 10.0\VC\INCLUDE\TMMINTRIN.H
C:\PROGRAM FILES\MICROSOFT VISUAL STUDIO 10.0\VC\INCLUDE\PMMINTRIN.H
C:\PROGRAM FILES\MICROSOFT VISUAL STUDIO 10.0\VC\INCLUDE\EMMINTRIN.H
C:\PROGRAM FILES\MICROSOFT VISUAL STUDIO 10.0\VC\INCLUDE\XMMINTRIN.H
C:\PROGRAM FILES\MICROSOFT VISUAL STUDIO 10.0\VC\INCLUDE\MMINTRIN.H
C:\PROGRAM FILES\MICROSOFT VISUAL STUDIO 10.0\VC\INCLUDE\MM3DNOW.H
C:\PROGRAM FILES\MICROSOFT VISUAL STUDIO 10.0\VC\INCLUDE\XXSHARED
F:\DEVELOPMENT\PROJECTS\C++\LUA_INTER\VISUAL STUDIO\SDL_LUA_LIB\SDL_LUA_LIB_001\INC\CONF.HH
C:\PROGRAM FILES\MICROSOFT VISUAL STUDIO 10.0\VC\INCLUDE\FSTREAM
F:\DEVELOPMENT\PROJECTS\C++\LUA_INTER\VISUAL STUDIO\SDL_LUA_LIB\SDL_LUA_LIB_001\INC\I_CONSOLE.HH
C:\PROGRAM FILES\MICROSOFT SDKS\WINDOWS\V7.0A\INCLUDE\WINDOWS.H
C:\PROGRAM FILES\MICROSOFT SDKS\WINDOWS\V7.0A\INCLUDE\SDKDDKVER.H
C:\PROGRAM FILES\MICROSOFT VISUAL STUDIO 10.0\VC\INCLUDE\EXCPT.H
C:\PROGRAM FILES\MICROSOFT SDKS\WINDOWS\V7.0A\INCLUDE\WINDEF.H
C:\PROGRAM FILES\MICROSOFT SDKS\WINDOWS\V7.0A\INCLUDE\WINNT.H
C:\PROGRAM FILES\MICROSOFT SDKS\WINDOWS\V7.0A\INCLUDE\SPECSTRINGS.H
C:\PROGRAM FILES\MICROSOFT SDKS\WINDOWS\V7.0A\INCLUDE\SAL_SUPP.H
C:\PROGRAM FILES\MICROSOFT SDKS\WINDOWS\V7.0A\INCLUDE\SPECSTRINGS_SUPP.H
C:\PROGRAM FILES\MICROSOFT SDKS\WINDOWS\V7.0A\INCLUDE\SPECSTRINGS_STRICT.H
C:\PROGRAM FILES\MICROSOFT SDKS\WINDOWS\V7.0A\INCLUDE\SPECSTRINGS_UNDEF.H
C:\PROGRAM FILES\MICROSOFT SDKS\WINDOWS\V7.0A\INCLUDE\DRIVERSPECS.H
C:\PROGRAM FILES\MICROSOFT SDKS\WINDOWS\V7.0A\INCLUDE\SDV_DRIVERSPECS.H
C:\PROGRAM FILES\MICROSOFT SDKS\WINDOWS\V7.0A\INCLUDE\KERNELSPECS.H
C:\PROGRAM FILES\MICROSOFT SDKS\WINDOWS\V7.0A\INCLUDE\BASETSD.H
C:\PROGRAM FILES\MICROSOFT SDKS\WINDOWS\V7.0A\INCLUDE\GUIDDEF.H
C:\PROGRAM FILES\MICROSOFT SDKS\WINDOWS\V7.0A\INCLUDE\PSHPACK4.H
C:\PROGRAM FILES\MICROSOFT SDKS\WINDOWS\V7.0A\INCLUDE\POPPACK.H
C:\PROGRAM FILES\MICROSOFT SDKS\WINDOWS\V7.0A\INCLUDE\PSHPACK2.H
C:\PROGRAM FILES\MICROSOFT SDKS\WINDOWS\V7.0A\INCLUDE\PSHPACK8.H
C:\PROGRAM FILES\MICROSOFT SDKS\WINDOWS\V7.0A\INCLUDE\KTMTYPES.H
C:\PROGRAM FILES\MICROSOFT SDKS\WINDOWS\V7.0A\INCLUDE\WINBASE.H
C:\PROGRAM FILES\MICROSOFT SDKS\WINDOWS\V7.0A\INCLUDE\WINERROR.H
C:\PROGRAM FILES\MICROSOFT SDKS\WINDOWS\V7.0A\INCLUDE\WINGDI.H
C:\PROGRAM FILES\MICROSOFT SDKS\WINDOWS\V7.0A\INCLUDE\PSHPACK1.H
C:\PROGRAM FILES\MICROSOFT SDKS\WINDOWS\V7.0A\INCLUDE\WINUSER.H
C:\PROGRAM FILES\MICROSOFT SDKS\WINDOWS\V7.0A\INCLUDE\TVOUT.H
C:\PROGRAM FILES\MICROSOFT SDKS\WINDOWS\V7.0A\INCLUDE\WINNLS.H
C:\PROGRAM FILES\MICROSOFT SDKS\WINDOWS\V7.0A\INCLUDE\WINCON.H
C:\PROGRAM FILES\MICROSOFT SDKS\WINDOWS\V7.0A\INCLUDE\WINVER.H
C:\PROGRAM FILES\MICROSOFT SDKS\WINDOWS\V7.0A\INCLUDE\VERRSRC.H
C:\PROGRAM FILES\MICROSOFT SDKS\WINDOWS\V7.0A\INCLUDE\WINREG.H
C:\PROGRAM FILES\MICROSOFT SDKS\WINDOWS\V7.0A\INCLUDE\REASON.H
C:\PROGRAM FILES\MICROSOFT SDKS\WINDOWS\V7.0A\INCLUDE\WINNETWK.H
C:\PROGRAM FILES\MICROSOFT SDKS\WINDOWS\V7.0A\INCLUDE\WNNC.H
C:\PROGRAM FILES\MICROSOFT SDKS\WINDOWS\V7.0A\INCLUDE\CDERR.H
C:\PROGRAM FILES\MICROSOFT SDKS\WINDOWS\V7.0A\INCLUDE\DDE.H
C:\PROGRAM FILES\MICROSOFT SDKS\WINDOWS\V7.0A\INCLUDE\DDEML.H
C:\PROGRAM FILES\MICROSOFT SDKS\WINDOWS\V7.0A\INCLUDE\DLGS.H
C:\PROGRAM FILES\MICROSOFT SDKS\WINDOWS\V7.0A\INCLUDE\LZEXPAND.H
C:\PROGRAM FILES\MICROSOFT SDKS\WINDOWS\V7.0A\INCLUDE\MMSYSTEM.H
C:\PROGRAM FILES\MICROSOFT SDKS\WINDOWS\V7.0A\INCLUDE\NB30.H
C:\PROGRAM FILES\MICROSOFT SDKS\WINDOWS\V7.0A\INCLUDE\RPC.H
C:\PROGRAM FILES\MICROSOFT SDKS\WINDOWS\V7.0A\INCLUDE\RPCDCE.H
C:\PROGRAM FILES\MICROSOFT SDKS\WINDOWS\V7.0A\INCLUDE\RPCDCEP.H
C:\PROGRAM FILES\MICROSOFT SDKS\WINDOWS\V7.0A\INCLUDE\RPCNSI.H
C:\PROGRAM FILES\MICROSOFT SDKS\WINDOWS\V7.0A\INCLUDE\RPCNTERR.H
C:\PROGRAM FILES\MICROSOFT SDKS\WINDOWS\V7.0A\INCLUDE\RPCASYNC.H
C:\PROGRAM FILES\MICROSOFT SDKS\WINDOWS\V7.0A\INCLUDE\SHELLAPI.H
C:\PROGRAM FILES\MICROSOFT SDKS\WINDOWS\V7.0A\INCLUDE\WINPERF.H
C:\PROGRAM FILES\MICROSOFT SDKS\WINDOWS\V7.0A\INCLUDE\WINSOCK.H
C:\PROGRAM FILES\MICROSOFT SDKS\WINDOWS\V7.0A\INCLUDE\INADDR.H
C:\PROGRAM FILES\MICROSOFT SDKS\WINDOWS\V7.0A\INCLUDE\WINCRYPT.H
C:\PROGRAM FILES\MICROSOFT SDKS\WINDOWS\V7.0A\INCLUDE\BCRYPT.H
C:\PROGRAM FILES\MICROSOFT SDKS\WINDOWS\V7.0A\INCLUDE\NCRYPT.H
C:\PROGRAM FILES\MICROSOFT SDKS\WINDOWS\V7.0A\INCLUDE\WINEFS.H
C:\PROGRAM FILES\MICROSOFT SDKS\WINDOWS\V7.0A\INCLUDE\WINSCARD.H
C:\PROGRAM FILES\MICROSOFT SDKS\WINDOWS\V7.0A\INCLUDE\WTYPES.H
C:\PROGRAM FILES\MICROSOFT SDKS\WINDOWS\V7.0A\INCLUDE\RPCNDR.H
C:\PROGRAM FILES\MICROSOFT SDKS\WINDOWS\V7.0A\INCLUDE\RPCNSIP.H
C:\PROGRAM FILES\MICROSOFT SDKS\WINDOWS\V7.0A\INCLUDE\RPCSAL.H
C:\PROGRAM FILES\MICROSOFT SDKS\WINDOWS\V7.0A\INCLUDE\WINIOCTL.H
C:\PROGRAM FILES\MICROSOFT SDKS\WINDOWS\V7.0A\INCLUDE\WINSMCRD.H
C:\PROGRAM FILES\MICROSOFT SDKS\WINDOWS\V7.0A\INCLUDE\WINSPOOL.H
C:\PROGRAM FILES\MICROSOFT SDKS\WINDOWS\V7.0A\INCLUDE\PRSHT.H
C:\PROGRAM FILES\MICROSOFT SDKS\WINDOWS\V7.0A\INCLUDE\OLE2.H
C:\PROGRAM FILES\MICROSOFT SDKS\WINDOWS\V7.0A\INCLUDE\OBJBASE.H
C:\PROGRAM FILES\MICROSOFT SDKS\WINDOWS\V7.0A\INCLUDE\UNKNWN.H
C:\PROGRAM FILES\MICROSOFT SDKS\WINDOWS\V7.0A\INCLUDE\OBJIDL.H
C:\PROGRAM FILES\MICROSOFT SDKS\WINDOWS\V7.0A\INCLUDE\CGUID.H
C:\PROGRAM FILES\MICROSOFT SDKS\WINDOWS\V7.0A\INCLUDE\URLMON.H
C:\PROGRAM FILES\MICROSOFT SDKS\WINDOWS\V7.0A\INCLUDE\OLEIDL.H
C:\PROGRAM FILES\MICROSOFT SDKS\WINDOWS\V7.0A\INCLUDE\SERVPROV.H
C:\PROGRAM FILES\MICROSOFT SDKS\WINDOWS\V7.0A\INCLUDE\MSXML.H
C:\PROGRAM FILES\MICROSOFT SDKS\WINDOWS\V7.0A\INCLUDE\OAIDL.H
C:\PROGRAM FILES\MICROSOFT SDKS\WINDOWS\V7.0A\INCLUDE\PROPIDL.H
C:\PROGRAM FILES\MICROSOFT SDKS\WINDOWS\V7.0A\INCLUDE\OLEAUTO.H
C:\PROGRAM FILES\MICROSOFT SDKS\WINDOWS\V7.0A\INCLUDE\COMMDLG.H
C:\PROGRAM FILES\MICROSOFT SDKS\WINDOWS\V7.0A\INCLUDE\STRALIGN.H
C:\PROGRAM FILES\MICROSOFT SDKS\WINDOWS\V7.0A\INCLUDE\WINSVC.H
C:\PROGRAM FILES\MICROSOFT SDKS\WINDOWS\V7.0A\INCLUDE\MCX.H
C:\PROGRAM FILES\MICROSOFT SDKS\WINDOWS\V7.0A\INCLUDE\IMM.H
C:\PROGRAM FILES\MICROSOFT SDKS\WINDOWS\V7.0A\INCLUDE\IME_CMODES.H
F:\DEVELOPMENT\PROJECTS\C++\LUA_INTER\VISUAL STUDIO\SDL_LUA_LIB\SDL_LUA_LIB_001\INC\MAIN.HH
C:\PROGRAM FILES\MICROSOFT VISUAL STUDIO 10.0\VC\INCLUDE\SSTREAM
^F:\DEVELOPMENT\PROJECTS\C++\LUA_INTER\VISUAL STUDIO\SDL_LUA_LIB\SDL_LUA_LIB_001\SRC\FUNSTATE\REGISTER.CPP
F:\DEVELOPMENT\PROJECTS\C++\LUA_INTER\VISUAL STUDIO\SDL_LUA_LIB\SDL_LUA_LIB_001\LIB\INC\SDL\SDL.H
F:\DEVELOPMENT\PROJECTS\C++\LUA_INTER\VISUAL STUDIO\SDL_LUA_LIB\SDL_LUA_LIB_001\LIB\INC\SDL\SDL_MAIN.H
F:\DEVELOPMENT\PROJECTS\C++\LUA_INTER\VISUAL STUDIO\SDL_LUA_LIB\SDL_LUA_LIB_001\LIB\INC\SDL\SDL_STDINC.H
F:\DEVELOPMENT\PROJECTS\C++\LUA_INTER\VISUAL STUDIO\SDL_LUA_LIB\SDL_LUA_LIB_001\LIB\INC\SDL\SDL_CONFIG.H
F:\DEVELOPMENT\PROJECTS\C++\LUA_INTER\VISUAL STUDIO\SDL_LUA_LIB\SDL_LUA_LIB_001\LIB\INC\SDL\SDL_PLATFORM.H
F:\DEVELOPMENT\PROJECTS\C++\LUA_INTER\VISUAL STUDIO\SDL_LUA_LIB\SDL_LUA_LIB_001\LIB\INC\SDL\SDL_CONFIG_WIN32.H
C:\PROGRAM FILES\MICROSOFT VISUAL STUDIO 10.0\VC\INCLUDE\STDIO.H
C:\PROGRAM FILES\MICROSOFT VISUAL STUDIO 10.0\VC\INCLUDE\CRTDEFS.H
C:\PROGRAM FILES\MICROSOFT VISUAL STUDIO 10.0\VC\INCLUDE\SAL.H
C:\PROGRAM FILES\MICROSOFT VISUAL STUDIO 10.0\VC\INCLUDE\CODEANALYSIS\SOURCEANNOTATIONS.H
C:\PROGRAM FILES\MICROSOFT VISUAL STUDIO 10.0\VC\INCLUDE\VADEFS.H
C:\PROGRAM FILES\MICROSOFT VISUAL STUDIO 10.0\VC\INCLUDE\SWPRINTF.INL
C:\PROGRAM FILES\MICROSOFT VISUAL STUDIO 10.0\VC\INCLUDE\STDLIB.H
C:\PROGRAM FILES\MICROSOFT VISUAL STUDIO 10.0\VC\INCLUDE\LIMITS.H
C:\PROGRAM FILES\MICROSOFT VISUAL STUDIO 10.0\VC\INCLUDE\STDDEF.H
C:\PROGRAM FILES\MICROSOFT VISUAL STUDIO 10.0\VC\INCLUDE\STDARG.H
C:\PROGRAM FILES\MICROSOFT VISUAL STUDIO 10.0\VC\INCLUDE\STRING.H
C:\PROGRAM FILES\MICROSOFT VISUAL STUDIO 10.0\VC\INCLUDE\CTYPE.H
F:\DEVELOPMENT\PROJECTS\C++\LUA_INTER\VISUAL STUDIO\SDL_LUA_LIB\SDL_LUA_LIB_001\LIB\INC\SDL\BEGIN_CODE.H
C:\PROGRAM FILES\MICROSOFT VISUAL STUDIO 10.0\VC\INCLUDE\MALLOC.H
F:\DEVELOPMENT\PROJECTS\C++\LUA_INTER\VISUAL STUDIO\SDL_LUA_LIB\SDL_LUA_LIB_001\LIB\INC\SDL\CLOSE_CODE.H
F:\DEVELOPMENT\PROJECTS\C++\LUA_INTER\VISUAL STUDIO\SDL_LUA_LIB\SDL_LUA_LIB_001\LIB\INC\SDL\SDL_AUDIO.H
F:\DEVELOPMENT\PROJECTS\C++\LUA_INTER\VISUAL STUDIO\SDL_LUA_LIB\SDL_LUA_LIB_001\LIB\INC\SDL\SDL_ERROR.H
F:\DEVELOPMENT\PROJECTS\C++\LUA_INTER\VISUAL STUDIO\SDL_LUA_LIB\SDL_LUA_LIB_001\LIB\INC\SDL\SDL_ENDIAN.H
F:\DEVELOPMENT\PROJECTS\C++\LUA_INTER\VISUAL STUDIO\SDL_LUA_LIB\SDL_LUA_LIB_001\LIB\INC\SDL\SDL_MUTEX.H
F:\DEVELOPMENT\PROJECTS\C++\LUA_INTER\VISUAL STUDIO\SDL_LUA_LIB\SDL_LUA_LIB_001\LIB\INC\SDL\SDL_THREAD.H
F:\DEVELOPMENT\PROJECTS\C++\LUA_INTER\VISUAL STUDIO\SDL_LUA_LIB\SDL_LUA_LIB_001\LIB\INC\SDL\SDL_RWOPS.H
F:\DEVELOPMENT\PROJECTS\C++\LUA_INTER\VISUAL STUDIO\SDL_LUA_LIB\SDL_LUA_LIB_001\LIB\INC\SDL\SDL_CDROM.H
F:\DEVELOPMENT\PROJECTS\C++\LUA_INTER\VISUAL STUDIO\SDL_LUA_LIB\SDL_LUA_LIB_001\LIB\INC\SDL\SDL_CPUINFO.H
F:\DEVELOPMENT\PROJECTS\C++\LUA_INTER\VISUAL STUDIO\SDL_LUA_LIB\SDL_LUA_LIB_001\LIB\INC\SDL\SDL_EVENTS.H
F:\DEVELOPMENT\PROJECTS\C++\LUA_INTER\VISUAL STUDIO\SDL_LUA_LIB\SDL_LUA_LIB_001\LIB\INC\SDL\SDL_ACTIVE.H
F:\DEVELOPMENT\PROJECTS\C++\LUA_INTER\VISUAL STUDIO\SDL_LUA_LIB\SDL_LUA_LIB_001\LIB\INC\SDL\SDL_KEYBOARD.H
F:\DEVELOPMENT\PROJECTS\C++\LUA_INTER\VISUAL STUDIO\SDL_LUA_LIB\SDL_LUA_LIB_001\LIB\INC\SDL\SDL_KEYSYM.H
F:\DEVELOPMENT\PROJECTS\C++\LUA_INTER\VISUAL STUDIO\SDL_LUA_LIB\SDL_LUA_LIB_001\LIB\INC\SDL\SDL_MOUSE.H
F:\DEVELOPMENT\PROJECTS\C++\LUA_INTER\VISUAL STUDIO\SDL_LUA_LIB\SDL_LUA_LIB_001\LIB\INC\SDL\SDL_VIDEO.H
F:\DEVELOPMENT\PROJECTS\C++\LUA_INTER\VISUAL STUDIO\SDL_LUA_LIB\SDL_LUA_LIB_001\LIB\INC\SDL\SDL_JOYSTICK.H
F:\DEVELOPMENT\PROJECTS\C++\LUA_INTER\VISUAL STUDIO\SDL_LUA_LIB\SDL_LUA_LIB_001\LIB\INC\SDL\SDL_QUIT.H
F:\DEVELOPMENT\PROJECTS\C++\LUA_INTER\VISUAL STUDIO\SDL_LUA_LIB\SDL_LUA_LIB_001\LIB\INC\SDL\SDL_LOADSO.H
F:\DEVELOPMENT\PROJECTS\C++\LUA_INTER\VISUAL STUDIO\SDL_LUA_LIB\SDL_LUA_LIB_001\LIB\INC\SDL\SDL_TIMER.H
F:\DEVELOPMENT\PROJECTS\C++\LUA_INTER\VISUAL STUDIO\SDL_LUA_LIB\SDL_LUA_LIB_001\LIB\INC\SDL\SDL_VERSION.H
F:\DEVELOPMENT\PROJECTS\C++\LUA_INTER\VISUAL STUDIO\SDL_LUA_LIB\SDL_LUA_LIB_001\LIB\INC\LUA\LUA.HPP
F:\DEVELOPMENT\PROJECTS\C++\LUA_INTER\VISUAL STUDIO\SDL_LUA_LIB\SDL_LUA_LIB_001\LIB\INC\LUA\LUA.H
F:\DEVELOPMENT\PROJECTS\C++\LUA_INTER\VISUAL STUDIO\SDL_LUA_LIB\SDL_LUA_LIB_001\LIB\INC\LUA\LUACONF.H
F:\DEVELOPMENT\PROJECTS\C++\LUA_INTER\VISUAL STUDIO\SDL_LUA_LIB\SDL_LUA_LIB_001\LIB\INC\LUA\LUALIB.H
F:\DEVELOPMENT\PROJECTS\C++\LUA_INTER\VISUAL STUDIO\SDL_LUA_LIB\SDL_LUA_LIB_001\LIB\INC\LUA\LAUXLIB.H
F:\DEVELOPMENT\PROJECTS\C++\LUA_INTER\VISUAL STUDIO\SDL_LUA_LIB\SDL_LUA_LIB_001\INC\MAIN.HH
C:\PROGRAM FILES\MICROSOFT VISUAL STUDIO 10.0\VC\INCLUDE\SSTREAM
C:\PROGRAM FILES\MICROSOFT VISUAL STUDIO 10.0\VC\INCLUDE\STRING
C:\PROGRAM FILES\MICROSOFT VISUAL STUDIO 10.0\VC\INCLUDE\ISTREAM
C:\PROGRAM FILES\MICROSOFT VISUAL STUDIO 10.0\VC\INCLUDE\OSTREAM
C:\PROGRAM FILES\MICROSOFT VISUAL STUDIO 10.0\VC\INCLUDE\IOS
C:\PROGRAM FILES\MICROSOFT VISUAL STUDIO 10.0\VC\INCLUDE\XLOCNUM
C:\PROGRAM FILES\MICROSOFT VISUAL STUDIO 10.0\VC\INCLUDE\CLIMITS
C:\PROGRAM FILES\MICROSOFT VISUAL STUDIO 10.0\VC\INCLUDE\YVALS.H
C:\PROGRAM FILES\MICROSOFT VISUAL STUDIO 10.0\VC\INCLUDE\USE_ANSI.H
C:\PROGRAM FILES\MICROSOFT VISUAL STUDIO 10.0\VC\INCLUDE\CMATH
C:\PROGRAM FILES\MICROSOFT VISUAL STUDIO 10.0\VC\INCLUDE\MATH.H
C:\PROGRAM FILES\MICROSOFT VISUAL STUDIO 10.0\VC\INCLUDE\CSTDIO
C:\PROGRAM FILES\MICROSOFT VISUAL STUDIO 10.0\VC\INCLUDE\CSTDLIB
C:\PROGRAM FILES\MICROSOFT VISUAL STUDIO 10.0\VC\INCLUDE\STREAMBUF
C:\PROGRAM FILES\MICROSOFT VISUAL STUDIO 10.0\VC\INCLUDE\XIOSBASE
C:\PROGRAM FILES\MICROSOFT VISUAL STUDIO 10.0\VC\INCLUDE\XLOCALE
C:\PROGRAM FILES\MICROSOFT VISUAL STUDIO 10.0\VC\INCLUDE\CSTRING
C:\PROGRAM FILES\MICROSOFT VISUAL STUDIO 10.0\VC\INCLUDE\STDEXCEPT
C:\PROGRAM FILES\MICROSOFT VISUAL STUDIO 10.0\VC\INCLUDE\EXCEPTION
C:\PROGRAM FILES\MICROSOFT VISUAL STUDIO 10.0\VC\INCLUDE\XSTDDEF
C:\PROGRAM FILES\MICROSOFT VISUAL STUDIO 10.0\VC\INCLUDE\CSTDDEF
C:\PROGRAM FILES\MICROSOFT VISUAL STUDIO 10.0\VC\INCLUDE\EH.H
C:\PROGRAM FILES\MICROSOFT VISUAL STUDIO 10.0\VC\INCLUDE\XSTRING
C:\PROGRAM FILES\MICROSOFT VISUAL STUDIO 10.0\VC\INCLUDE\XMEMORY
C:\PROGRAM FILES\MICROSOFT VISUAL STUDIO 10.0\VC\INCLUDE\NEW
C:\PROGRAM FILES\MICROSOFT VISUAL STUDIO 10.0\VC\INCLUDE\XUTILITY
C:\PROGRAM FILES\MICROSOFT VISUAL STUDIO 10.0\VC\INCLUDE\UTILITY
C:\PROGRAM FILES\MICROSOFT VISUAL STUDIO 10.0\VC\INCLUDE\IOSFWD
C:\PROGRAM FILES\MICROSOFT VISUAL STUDIO 10.0\VC\INCLUDE\CWCHAR
C:\PROGRAM FILES\MICROSOFT VISUAL STUDIO 10.0\VC\INCLUDE\WCHAR.H
C:\PROGRAM FILES\MICROSOFT VISUAL STUDIO 10.0\VC\INCLUDE\WTIME.INL
C:\PROGRAM FILES\MICROSOFT VISUAL STUDIO 10.0\VC\INCLUDE\CRTDBG.H
C:\PROGRAM FILES\MICROSOFT VISUAL STUDIO 10.0\VC\INCLUDE\TYPE_TRAITS
C:\PROGRAM FILES\MICROSOFT VISUAL STUDIO 10.0\VC\INCLUDE\LIMITS
C:\PROGRAM FILES\MICROSOFT VISUAL STUDIO 10.0\VC\INCLUDE\YMATH.H
C:\PROGRAM FILES\MICROSOFT VISUAL STUDIO 10.0\VC\INCLUDE\CFLOAT
C:\PROGRAM FILES\MICROSOFT VISUAL STUDIO 10.0\VC\INCLUDE\FLOAT.H
C:\PROGRAM FILES\MICROSOFT VISUAL STUDIO 10.0\VC\INCLUDE\CRTWRN.H
C:\PROGRAM FILES\MICROSOFT VISUAL STUDIO 10.0\VC\INCLUDE\XTR1COMMON
C:\PROGRAM FILES\MICROSOFT VISUAL STUDIO 10.0\VC\INCLUDE\XFWRAP
C:\PROGRAM FILES\MICROSOFT VISUAL STUDIO 10.0\VC\INCLUDE\XFWRAP1
C:\PROGRAM FILES\MICROSOFT VISUAL STUDIO 10.0\VC\INCLUDE\XXTYPE_TRAITS
C:\PROGRAM FILES\MICROSOFT VISUAL STUDIO 10.0\VC\INCLUDE\TYPEINFO
C:\PROGRAM FILES\MICROSOFT VISUAL STUDIO 10.0\VC\INCLUDE\XLOCINFO
C:\PROGRAM FILES\MICROSOFT VISUAL STUDIO 10.0\VC\INCLUDE\XLOCINFO.H
C:\PROGRAM FILES\MICROSOFT VISUAL STUDIO 10.0\VC\INCLUDE\LOCALE.H
C:\PROGRAM FILES\MICROSOFT VISUAL STUDIO 10.0\VC\INCLUDE\XDEBUG
C:\PROGRAM FILES\MICROSOFT VISUAL STUDIO 10.0\VC\INCLUDE\SYSTEM_ERROR
C:\PROGRAM FILES\MICROSOFT VISUAL STUDIO 10.0\VC\INCLUDE\CERRNO
C:\PROGRAM FILES\MICROSOFT VISUAL STUDIO 10.0\VC\INCLUDE\ERRNO.H
C:\PROGRAM FILES\MICROSOFT VISUAL STUDIO 10.0\VC\INCLUDE\SHARE.H
F:\DEVELOPMENT\PROJECTS\C++\LUA_INTER\VISUAL STUDIO\SDL_LUA_LIB\SDL_LUA_LIB_001\INC\I_LUA_INTER.HH
C:\PROGRAM FILES\MICROSOFT VISUAL STUDIO 10.0\VC\INCLUDE\MAP
C:\PROGRAM FILES\MICROSOFT VISUAL STUDIO 10.0\VC\INCLUDE\XTREE
C:\PROGRAM FILES\MICROSOFT VISUAL STUDIO 10.0\VC\INCLUDE\XFUNCTIONAL
C:\PROGRAM FILES\MICROSOFT VISUAL STUDIO 10.0\VC\INCLUDE\MEMORY
C:\PROGRAM FILES\MICROSOFT VISUAL STUDIO 10.0\VC\INCLUDE\INTRIN.H
C:\PROGRAM FILES\MICROSOFT VISUAL STUDIO 10.0\VC\INCLUDE\SETJMP.H
C:\PROGRAM FILES\MICROSOFT VISUAL STUDIO 10.0\VC\INCLUDE\IMMINTRIN.H
C:\PROGRAM FILES\MICROSOFT VISUAL STUDIO 10.0\VC\INCLUDE\WMMINTRIN.H
C:\PROGRAM FILES\MICROSOFT VISUAL STUDIO 10.0\VC\INCLUDE\NMMINTRIN.H
C:\PROGRAM FILES\MICROSOFT VISUAL STUDIO 10.0\VC\INCLUDE\SMMINTRIN.H
C:\PROGRAM FILES\MICROSOFT VISUAL STUDIO 10.0\VC\INCLUDE\TMMINTRIN.H
C:\PROGRAM FILES\MICROSOFT VISUAL STUDIO 10.0\VC\INCLUDE\PMMINTRIN.H
C:\PROGRAM FILES\MICROSOFT VISUAL STUDIO 10.0\VC\INCLUDE\EMMINTRIN.H
C:\PROGRAM FILES\MICROSOFT VISUAL STUDIO 10.0\VC\INCLUDE\XMMINTRIN.H
C:\PROGRAM FILES\MICROSOFT VISUAL STUDIO 10.0\VC\INCLUDE\MMINTRIN.H
C:\PROGRAM FILES\MICROSOFT VISUAL STUDIO 10.0\VC\INCLUDE\MM3DNOW.H
C:\PROGRAM FILES\MICROSOFT VISUAL STUDIO 10.0\VC\INCLUDE\XXSHARED
F:\DEVELOPMENT\PROJECTS\C++\LUA_INTER\VISUAL STUDIO\SDL_LUA_LIB\SDL_LUA_LIB_001\INC\CONF.HH
C:\PROGRAM FILES\MICROSOFT VISUAL STUDIO 10.0\VC\INCLUDE\FSTREAM
F:\DEVELOPMENT\PROJECTS\C++\LUA_INTER\VISUAL STUDIO\SDL_LUA_LIB\SDL_LUA_LIB_001\INC\I_CONSOLE.HH
C:\PROGRAM FILES\MICROSOFT SDKS\WINDOWS\V7.0A\INCLUDE\WINDOWS.H
C:\PROGRAM FILES\MICROSOFT SDKS\WINDOWS\V7.0A\INCLUDE\SDKDDKVER.H
C:\PROGRAM FILES\MICROSOFT VISUAL STUDIO 10.0\VC\INCLUDE\EXCPT.H
C:\PROGRAM FILES\MICROSOFT SDKS\WINDOWS\V7.0A\INCLUDE\WINDEF.H
C:\PROGRAM FILES\MICROSOFT SDKS\WINDOWS\V7.0A\INCLUDE\WINNT.H
C:\PROGRAM FILES\MICROSOFT SDKS\WINDOWS\V7.0A\INCLUDE\SPECSTRINGS.H
C:\PROGRAM FILES\MICROSOFT SDKS\WINDOWS\V7.0A\INCLUDE\SAL_SUPP.H
C:\PROGRAM FILES\MICROSOFT SDKS\WINDOWS\V7.0A\INCLUDE\SPECSTRINGS_SUPP.H
C:\PROGRAM FILES\MICROSOFT SDKS\WINDOWS\V7.0A\INCLUDE\SPECSTRINGS_STRICT.H
C:\PROGRAM FILES\MICROSOFT SDKS\WINDOWS\V7.0A\INCLUDE\SPECSTRINGS_UNDEF.H
C:\PROGRAM FILES\MICROSOFT SDKS\WINDOWS\V7.0A\INCLUDE\DRIVERSPECS.H
C:\PROGRAM FILES\MICROSOFT SDKS\WINDOWS\V7.0A\INCLUDE\SDV_DRIVERSPECS.H
C:\PROGRAM FILES\MICROSOFT SDKS\WINDOWS\V7.0A\INCLUDE\KERNELSPECS.H
C:\PROGRAM FILES\MICROSOFT SDKS\WINDOWS\V7.0A\INCLUDE\BASETSD.H
C:\PROGRAM FILES\MICROSOFT SDKS\WINDOWS\V7.0A\INCLUDE\GUIDDEF.H
C:\PROGRAM FILES\MICROSOFT SDKS\WINDOWS\V7.0A\INCLUDE\PSHPACK4.H
C:\PROGRAM FILES\MICROSOFT SDKS\WINDOWS\V7.0A\INCLUDE\POPPACK.H
C:\PROGRAM FILES\MICROSOFT SDKS\WINDOWS\V7.0A\INCLUDE\PSHPACK2.H
C:\PROGRAM FILES\MICROSOFT SDKS\WINDOWS\V7.0A\INCLUDE\PSHPACK8.H
C:\PROGRAM FILES\MICROSOFT SDKS\WINDOWS\V7.0A\INCLUDE\KTMTYPES.H
C:\PROGRAM FILES\MICROSOFT SDKS\WINDOWS\V7.0A\INCLUDE\WINBASE.H
C:\PROGRAM FILES\MICROSOFT SDKS\WINDOWS\V7.0A\INCLUDE\WINERROR.H
C:\PROGRAM FILES\MICROSOFT SDKS\WINDOWS\V7.0A\INCLUDE\WINGDI.H
C:\PROGRAM FILES\MICROSOFT SDKS\WINDOWS\V7.0A\INCLUDE\PSHPACK1.H
C:\PROGRAM FILES\MICROSOFT SDKS\WINDOWS\V7.0A\INCLUDE\WINUSER.H
C:\PROGRAM FILES\MICROSOFT SDKS\WINDOWS\V7.0A\INCLUDE\TVOUT.H
C:\PROGRAM FILES\MICROSOFT SDKS\WINDOWS\V7.0A\INCLUDE\WINNLS.H
C:\PROGRAM FILES\MICROSOFT SDKS\WINDOWS\V7.0A\INCLUDE\WINCON.H
C:\PROGRAM FILES\MICROSOFT SDKS\WINDOWS\V7.0A\INCLUDE\WINVER.H
C:\PROGRAM FILES\MICROSOFT SDKS\WINDOWS\V7.0A\INCLUDE\VERRSRC.H
C:\PROGRAM FILES\MICROSOFT SDKS\WINDOWS\V7.0A\INCLUDE\WINREG.H
C:\PROGRAM FILES\MICROSOFT SDKS\WINDOWS\V7.0A\INCLUDE\REASON.H
C:\PROGRAM FILES\MICROSOFT SDKS\WINDOWS\V7.0A\INCLUDE\WINNETWK.H
C:\PROGRAM FILES\MICROSOFT SDKS\WINDOWS\V7.0A\INCLUDE\WNNC.H
C:\PROGRAM FILES\MICROSOFT SDKS\WINDOWS\V7.0A\INCLUDE\CDERR.H
C:\PROGRAM FILES\MICROSOFT SDKS\WINDOWS\V7.0A\INCLUDE\DDE.H
C:\PROGRAM FILES\MICROSOFT SDKS\WINDOWS\V7.0A\INCLUDE\DDEML.H
C:\PROGRAM FILES\MICROSOFT SDKS\WINDOWS\V7.0A\INCLUDE\DLGS.H
C:\PROGRAM FILES\MICROSOFT SDKS\WINDOWS\V7.0A\INCLUDE\LZEXPAND.H
C:\PROGRAM FILES\MICROSOFT SDKS\WINDOWS\V7.0A\INCLUDE\MMSYSTEM.H
C:\PROGRAM FILES\MICROSOFT SDKS\WINDOWS\V7.0A\INCLUDE\NB30.H
C:\PROGRAM FILES\MICROSOFT SDKS\WINDOWS\V7.0A\INCLUDE\RPC.H
C:\PROGRAM FILES\MICROSOFT SDKS\WINDOWS\V7.0A\INCLUDE\RPCDCE.H
C:\PROGRAM FILES\MICROSOFT SDKS\WINDOWS\V7.0A\INCLUDE\RPCDCEP.H
C:\PROGRAM FILES\MICROSOFT SDKS\WINDOWS\V7.0A\INCLUDE\RPCNSI.H
C:\PROGRAM FILES\MICROSOFT SDKS\WINDOWS\V7.0A\INCLUDE\RPCNTERR.H
C:\PROGRAM FILES\MICROSOFT SDKS\WINDOWS\V7.0A\INCLUDE\RPCASYNC.H
C:\PROGRAM FILES\MICROSOFT SDKS\WINDOWS\V7.0A\INCLUDE\SHELLAPI.H
C:\PROGRAM FILES\MICROSOFT SDKS\WINDOWS\V7.0A\INCLUDE\WINPERF.H
C:\PROGRAM FILES\MICROSOFT SDKS\WINDOWS\V7.0A\INCLUDE\WINSOCK.H
C:\PROGRAM FILES\MICROSOFT SDKS\WINDOWS\V7.0A\INCLUDE\INADDR.H
C:\PROGRAM FILES\MICROSOFT SDKS\WINDOWS\V7.0A\INCLUDE\WINCRYPT.H
C:\PROGRAM FILES\MICROSOFT SDKS\WINDOWS\V7.0A\INCLUDE\BCRYPT.H
C:\PROGRAM FILES\MICROSOFT SDKS\WINDOWS\V7.0A\INCLUDE\NCRYPT.H
C:\PROGRAM FILES\MICROSOFT SDKS\WINDOWS\V7.0A\INCLUDE\WINEFS.H
C:\PROGRAM FILES\MICROSOFT SDKS\WINDOWS\V7.0A\INCLUDE\WINSCARD.H
C:\PROGRAM FILES\MICROSOFT SDKS\WINDOWS\V7.0A\INCLUDE\WTYPES.H
C:\PROGRAM FILES\MICROSOFT SDKS\WINDOWS\V7.0A\INCLUDE\RPCNDR.H
C:\PROGRAM FILES\MICROSOFT SDKS\WINDOWS\V7.0A\INCLUDE\RPCNSIP.H
C:\PROGRAM FILES\MICROSOFT SDKS\WINDOWS\V7.0A\INCLUDE\RPCSAL.H
C:\PROGRAM FILES\MICROSOFT SDKS\WINDOWS\V7.0A\INCLUDE\WINIOCTL.H
C:\PROGRAM FILES\MICROSOFT SDKS\WINDOWS\V7.0A\INCLUDE\WINSMCRD.H
C:\PROGRAM FILES\MICROSOFT SDKS\WINDOWS\V7.0A\INCLUDE\WINSPOOL.H
C:\PROGRAM FILES\MICROSOFT SDKS\WINDOWS\V7.0A\INCLUDE\PRSHT.H
C:\PROGRAM FILES\MICROSOFT SDKS\WINDOWS\V7.0A\INCLUDE\OLE2.H
C:\PROGRAM FILES\MICROSOFT SDKS\WINDOWS\V7.0A\INCLUDE\OBJBASE.H
C:\PROGRAM FILES\MICROSOFT SDKS\WINDOWS\V7.0A\INCLUDE\UNKNWN.H
C:\PROGRAM FILES\MICROSOFT SDKS\WINDOWS\V7.0A\INCLUDE\OBJIDL.H
C:\PROGRAM FILES\MICROSOFT SDKS\WINDOWS\V7.0A\INCLUDE\CGUID.H
C:\PROGRAM FILES\MICROSOFT SDKS\WINDOWS\V7.0A\INCLUDE\URLMON.H
C:\PROGRAM FILES\MICROSOFT SDKS\WINDOWS\V7.0A\INCLUDE\OLEIDL.H
C:\PROGRAM FILES\MICROSOFT SDKS\WINDOWS\V7.0A\INCLUDE\SERVPROV.H
C:\PROGRAM FILES\MICROSOFT SDKS\WINDOWS\V7.0A\INCLUDE\MSXML.H
C:\PROGRAM FILES\MICROSOFT SDKS\WINDOWS\V7.0A\INCLUDE\OAIDL.H
C:\PROGRAM FILES\MICROSOFT SDKS\WINDOWS\V7.0A\INCLUDE\PROPIDL.H
C:\PROGRAM FILES\MICROSOFT SDKS\WINDOWS\V7.0A\INCLUDE\OLEAUTO.H
C:\PROGRAM FILES\MICROSOFT SDKS\WINDOWS\V7.0A\INCLUDE\COMMDLG.H
C:\PROGRAM FILES\MICROSOFT SDKS\WINDOWS\V7.0A\INCLUDE\STRALIGN.H
C:\PROGRAM FILES\MICROSOFT SDKS\WINDOWS\V7.0A\INCLUDE\WINSVC.H
C:\PROGRAM FILES\MICROSOFT SDKS\WINDOWS\V7.0A\INCLUDE\MCX.H
C:\PROGRAM FILES\MICROSOFT SDKS\WINDOWS\V7.0A\INCLUDE\IMM.H
C:\PROGRAM FILES\MICROSOFT SDKS\WINDOWS\V7.0A\INCLUDE\IME_CMODES.H
F:\DEVELOPMENT\PROJECTS\C++\LUA_INTER\VISUAL STUDIO\SDL_LUA_LIB\SDL_LUA_LIB_001\INC\FUNSTATE\FUNSTATELUA_LIB.HH
F:\DEVELOPMENT\PROJECTS\C++\LUA_INTER\VISUAL STUDIO\SDL_LUA_LIB\SDL_LUA_LIB_001\INC\FUNSTATE\REGISTER.HH
^F:\DEVELOPMENT\PROJECTS\C++\LUA_INTER\VISUAL STUDIO\SDL_LUA_LIB\SDL_LUA_LIB_001\SRC\FUNSTATE\FUNSTATELUA_LIB.CPP
C:\PROGRAM FILES\MICROSOFT VISUAL STUDIO 10.0\VC\BIN\1036\CLUI.DLL
C:\WINDOWS\SYSTEM32\RSAENH.DLL
C:\WINDOWS\SYSTEM32\CRYPT32.DLL
C:\PROGRAM FILES\MICROSOFT VISUAL STUDIO 10.0\VC\INCLUDE\CSTDLIB
C:\PROGRAM FILES\MICROSOFT VISUAL STUDIO 10.0\VC\INCLUDE\YVALS.H
C:\PROGRAM FILES\MICROSOFT VISUAL STUDIO 10.0\VC\INCLUDE\CRTDEFS.H
C:\PROGRAM FILES\MICROSOFT VISUAL STUDIO 10.0\VC\INCLUDE\SAL.H
C:\PROGRAM FILES\MICROSOFT VISUAL STUDIO 10.0\VC\INCLUDE\CODEANALYSIS\SOURCEANNOTATIONS.H
C:\PROGRAM FILES\MICROSOFT VISUAL STUDIO 10.0\VC\INCLUDE\VADEFS.H
C:\PROGRAM FILES\MICROSOFT VISUAL STUDIO 10.0\VC\INCLUDE\USE_ANSI.H
C:\PROGRAM FILES\MICROSOFT VISUAL STUDIO 10.0\VC\INCLUDE\STDLIB.H
C:\PROGRAM FILES\MICROSOFT VISUAL STUDIO 10.0\VC\INCLUDE\LIMITS.H
F:\DEVELOPMENT\PROJECTS\C++\LUA_INTER\VISUAL STUDIO\SDL_LUA_LIB\SDL_LUA_LIB_001\LIB\INC\SDL\SDL.H
F:\DEVELOPMENT\PROJECTS\C++\LUA_INTER\VISUAL STUDIO\SDL_LUA_LIB\SDL_LUA_LIB_001\LIB\INC\SDL\SDL_MAIN.H
F:\DEVELOPMENT\PROJECTS\C++\LUA_INTER\VISUAL STUDIO\SDL_LUA_LIB\SDL_LUA_LIB_001\LIB\INC\SDL\SDL_STDINC.H
F:\DEVELOPMENT\PROJECTS\C++\LUA_INTER\VISUAL STUDIO\SDL_LUA_LIB\SDL_LUA_LIB_001\LIB\INC\SDL\SDL_CONFIG.H
F:\DEVELOPMENT\PROJECTS\C++\LUA_INTER\VISUAL STUDIO\SDL_LUA_LIB\SDL_LUA_LIB_001\LIB\INC\SDL\SDL_PLATFORM.H
F:\DEVELOPMENT\PROJECTS\C++\LUA_INTER\VISUAL STUDIO\SDL_LUA_LIB\SDL_LUA_LIB_001\LIB\INC\SDL\SDL_CONFIG_WIN32.H
C:\PROGRAM FILES\MICROSOFT VISUAL STUDIO 10.0\VC\INCLUDE\STDIO.H
C:\PROGRAM FILES\MICROSOFT VISUAL STUDIO 10.0\VC\INCLUDE\SWPRINTF.INL
C:\PROGRAM FILES\MICROSOFT VISUAL STUDIO 10.0\VC\INCLUDE\STDDEF.H
C:\PROGRAM FILES\MICROSOFT VISUAL STUDIO 10.0\VC\INCLUDE\STDARG.H
C:\PROGRAM FILES\MICROSOFT VISUAL STUDIO 10.0\VC\INCLUDE\STRING.H
C:\PROGRAM FILES\MICROSOFT VISUAL STUDIO 10.0\VC\INCLUDE\CTYPE.H
F:\DEVELOPMENT\PROJECTS\C++\LUA_INTER\VISUAL STUDIO\SDL_LUA_LIB\SDL_LUA_LIB_001\LIB\INC\SDL\BEGIN_CODE.H
C:\PROGRAM FILES\MICROSOFT VISUAL STUDIO 10.0\VC\INCLUDE\MALLOC.H
F:\DEVELOPMENT\PROJECTS\C++\LUA_INTER\VISUAL STUDIO\SDL_LUA_LIB\SDL_LUA_LIB_001\LIB\INC\SDL\CLOSE_CODE.H
F:\DEVELOPMENT\PROJECTS\C++\LUA_INTER\VISUAL STUDIO\SDL_LUA_LIB\SDL_LUA_LIB_001\LIB\INC\SDL\SDL_AUDIO.H
F:\DEVELOPMENT\PROJECTS\C++\LUA_INTER\VISUAL STUDIO\SDL_LUA_LIB\SDL_LUA_LIB_001\LIB\INC\SDL\SDL_ERROR.H
F:\DEVELOPMENT\PROJECTS\C++\LUA_INTER\VISUAL STUDIO\SDL_LUA_LIB\SDL_LUA_LIB_001\LIB\INC\SDL\SDL_ENDIAN.H
F:\DEVELOPMENT\PROJECTS\C++\LUA_INTER\VISUAL STUDIO\SDL_LUA_LIB\SDL_LUA_LIB_001\LIB\INC\SDL\SDL_MUTEX.H
F:\DEVELOPMENT\PROJECTS\C++\LUA_INTER\VISUAL STUDIO\SDL_LUA_LIB\SDL_LUA_LIB_001\LIB\INC\SDL\SDL_THREAD.H
F:\DEVELOPMENT\PROJECTS\C++\LUA_INTER\VISUAL STUDIO\SDL_LUA_LIB\SDL_LUA_LIB_001\LIB\INC\SDL\SDL_RWOPS.H
F:\DEVELOPMENT\PROJECTS\C++\LUA_INTER\VISUAL STUDIO\SDL_LUA_LIB\SDL_LUA_LIB_001\LIB\INC\SDL\SDL_CDROM.H
F:\DEVELOPMENT\PROJECTS\C++\LUA_INTER\VISUAL STUDIO\SDL_LUA_LIB\SDL_LUA_LIB_001\LIB\INC\SDL\SDL_CPUINFO.H
F:\DEVELOPMENT\PROJECTS\C++\LUA_INTER\VISUAL STUDIO\SDL_LUA_LIB\SDL_LUA_LIB_001\LIB\INC\SDL\SDL_EVENTS.H
F:\DEVELOPMENT\PROJECTS\C++\LUA_INTER\VISUAL STUDIO\SDL_LUA_LIB\SDL_LUA_LIB_001\LIB\INC\SDL\SDL_ACTIVE.H
F:\DEVELOPMENT\PROJECTS\C++\LUA_INTER\VISUAL STUDIO\SDL_LUA_LIB\SDL_LUA_LIB_001\LIB\INC\SDL\SDL_KEYBOARD.H
F:\DEVELOPMENT\PROJECTS\C++\LUA_INTER\VISUAL STUDIO\SDL_LUA_LIB\SDL_LUA_LIB_001\LIB\INC\SDL\SDL_KEYSYM.H
F:\DEVELOPMENT\PROJECTS\C++\LUA_INTER\VISUAL STUDIO\SDL_LUA_LIB\SDL_LUA_LIB_001\LIB\INC\SDL\SDL_MOUSE.H
F:\DEVELOPMENT\PROJECTS\C++\LUA_INTER\VISUAL STUDIO\SDL_LUA_LIB\SDL_LUA_LIB_001\LIB\INC\SDL\SDL_VIDEO.H
F:\DEVELOPMENT\PROJECTS\C++\LUA_INTER\VISUAL STUDIO\SDL_LUA_LIB\SDL_LUA_LIB_001\LIB\INC\SDL\SDL_JOYSTICK.H
F:\DEVELOPMENT\PROJECTS\C++\LUA_INTER\VISUAL STUDIO\SDL_LUA_LIB\SDL_LUA_LIB_001\LIB\INC\SDL\SDL_QUIT.H
F:\DEVELOPMENT\PROJECTS\C++\LUA_INTER\VISUAL STUDIO\SDL_LUA_LIB\SDL_LUA_LIB_001\LIB\INC\SDL\SDL_LOADSO.H
F:\DEVELOPMENT\PROJECTS\C++\LUA_INTER\VISUAL STUDIO\SDL_LUA_LIB\SDL_LUA_LIB_001\LIB\INC\SDL\SDL_TIMER.H
F:\DEVELOPMENT\PROJECTS\C++\LUA_INTER\VISUAL STUDIO\SDL_LUA_LIB\SDL_LUA_LIB_001\LIB\INC\SDL\SDL_VERSION.H
F:\DEVELOPMENT\PROJECTS\C++\LUA_INTER\VISUAL STUDIO\SDL_LUA_LIB\SDL_LUA_LIB_001\LIB\INC\SDL\SDL_IMAGE.H
F:\DEVELOPMENT\PROJECTS\C++\LUA_INTER\VISUAL STUDIO\SDL_LUA_LIB\SDL_LUA_LIB_001\LIB\INC\LUA\LUA.HPP
F:\DEVELOPMENT\PROJECTS\C++\LUA_INTER\VISUAL STUDIO\SDL_LUA_LIB\SDL_LUA_LIB_001\LIB\INC\LUA\LUA.H
F:\DEVELOPMENT\PROJECTS\C++\LUA_INTER\VISUAL STUDIO\SDL_LUA_LIB\SDL_LUA_LIB_001\LIB\INC\LUA\LUACONF.H
F:\DEVELOPMENT\PROJECTS\C++\LUA_INTER\VISUAL STUDIO\SDL_LUA_LIB\SDL_LUA_LIB_001\LIB\INC\LUA\LUALIB.H
F:\DEVELOPMENT\PROJECTS\C++\LUA_INTER\VISUAL STUDIO\SDL_LUA_LIB\SDL_LUA_LIB_001\LIB\INC\LUA\LAUXLIB.H
F:\DEVELOPMENT\PROJECTS\C++\LUA_INTER\VISUAL STUDIO\SDL_LUA_LIB\SDL_LUA_LIB_001\INC\FUNSTATE\FUNSTATELUA_LIB.HH
