^F:\DEVELOPMENT\PROJECTS\C++\LUA_INTER\VISUAL STUDIO\SDL_LUA_LIB\SDL_LUA_LIB_001\BUILD_WINDOWS\SDL_LUA_LIB.DIR\RELEASE\FUNSTATELUA_LIB.OBJ|F:\DEVELOPMENT\PROJECTS\C++\LUA_INTER\VISUAL STUDIO\SDL_LUA_LIB\SDL_LUA_LIB_001\BUILD_WINDOWS\SDL_LUA_LIB.DIR\RELEASE\MAIN.OBJ|F:\DEVELOPMENT\PROJECTS\C++\LUA_INTER\VISUAL STUDIO\SDL_LUA_LIB\SDL_LUA_LIB_001\BUILD_WINDOWS\SDL_LUA_LIB.DIR\RELEASE\REGISTER.OBJ
F:\DEVELOPMENT\PROJECTS\C++\LUA_INTER\VISUAL STUDIO\SDL_LUA_LIB\SDL_LUA_LIB_001\BUILD_WINDOWS\RELEASE\SDL_LUA_LIB.DLL
F:\DEVELOPMENT\PROJECTS\C++\LUA_INTER\VISUAL STUDIO\SDL_LUA_LIB\SDL_LUA_LIB_001\BUILD_WINDOWS\SDL_LUA_LIB.DIR\RELEASE\SDL_LUA_LIB.DLL.INTERMEDIATE.MANIFEST
