^F:\DEVELOPMENT\PROJECTS\C++\LUA_INTER\VISUAL STUDIO\SDL_LUA_LIB\SDL_LUA_LIB_001\BUILD_WINDOWS\SDL_LUA_LIB.DIR\RELEASE\FUNSTATELUA_LIB.OBJ|F:\DEVELOPMENT\PROJECTS\C++\LUA_INTER\VISUAL STUDIO\SDL_LUA_LIB\SDL_LUA_LIB_001\BUILD_WINDOWS\SDL_LUA_LIB.DIR\RELEASE\MAIN.OBJ|F:\DEVELOPMENT\PROJECTS\C++\LUA_INTER\VISUAL STUDIO\SDL_LUA_LIB\SDL_LUA_LIB_001\BUILD_WINDOWS\SDL_LUA_LIB.DIR\RELEASE\REGISTER.OBJ
C:\PROGRAM FILES\MICROSOFT SDKS\WINDOWS\V7.0A\LIB\KERNEL32.LIB
C:\PROGRAM FILES\MICROSOFT SDKS\WINDOWS\V7.0A\LIB\USER32.LIB
C:\PROGRAM FILES\MICROSOFT SDKS\WINDOWS\V7.0A\LIB\GDI32.LIB
C:\PROGRAM FILES\MICROSOFT SDKS\WINDOWS\V7.0A\LIB\WINSPOOL.LIB
C:\PROGRAM FILES\MICROSOFT SDKS\WINDOWS\V7.0A\LIB\SHELL32.LIB
C:\PROGRAM FILES\MICROSOFT SDKS\WINDOWS\V7.0A\LIB\OLE32.LIB
C:\PROGRAM FILES\MICROSOFT SDKS\WINDOWS\V7.0A\LIB\OLEAUT32.LIB
C:\PROGRAM FILES\MICROSOFT SDKS\WINDOWS\V7.0A\LIB\UUID.LIB
C:\PROGRAM FILES\MICROSOFT SDKS\WINDOWS\V7.0A\LIB\COMDLG32.LIB
C:\PROGRAM FILES\MICROSOFT SDKS\WINDOWS\V7.0A\LIB\ADVAPI32.LIB
F:\DEVELOPMENT\PROJECTS\C++\LUA_INTER\VISUAL STUDIO\SDL_LUA_LIB\SDL_LUA_LIB_001\LIB\BIN\LUA52.LIB
F:\DEVELOPMENT\PROJECTS\C++\LUA_INTER\VISUAL STUDIO\SDL_LUA_LIB\SDL_LUA_LIB_001\LIB\BIN\SDL.LIB
F:\DEVELOPMENT\PROJECTS\C++\LUA_INTER\VISUAL STUDIO\SDL_LUA_LIB\SDL_LUA_LIB_001\LIB\BIN\SDL_IMAGE.LIB
F:\DEVELOPMENT\PROJECTS\C++\LUA_INTER\VISUAL STUDIO\SDL_LUA_LIB\SDL_LUA_LIB_001\LIB\BIN\SDLMAIN.LIB
F:\DEVELOPMENT\PROJECTS\C++\LUA_INTER\VISUAL STUDIO\SDL_LUA_LIB\SDL_LUA_LIB_001\BUILD_WINDOWS\SDL_LUA_LIB.DIR\RELEASE\MAIN.OBJ
F:\DEVELOPMENT\PROJECTS\C++\LUA_INTER\VISUAL STUDIO\SDL_LUA_LIB\SDL_LUA_LIB_001\BUILD_WINDOWS\SDL_LUA_LIB.DIR\RELEASE\REGISTER.OBJ
F:\DEVELOPMENT\PROJECTS\C++\LUA_INTER\VISUAL STUDIO\SDL_LUA_LIB\SDL_LUA_LIB_001\BUILD_WINDOWS\SDL_LUA_LIB.DIR\RELEASE\FUNSTATELUA_LIB.OBJ
C:\PROGRAM FILES\MICROSOFT VISUAL STUDIO 10.0\VC\LIB\MSVCPRT.LIB
C:\PROGRAM FILES\MICROSOFT VISUAL STUDIO 10.0\VC\LIB\MSVCRT.LIB
C:\PROGRAM FILES\MICROSOFT VISUAL STUDIO 10.0\VC\LIB\OLDNAMES.LIB
C:\PROGRAM FILES\MICROSOFT VISUAL STUDIO 10.0\VC\LIB\LIBCMT.LIB
C:\PROGRAM FILES\MICROSOFT VISUAL STUDIO 10.0\VC\BIN\1036\LINKUI.DLL
F:\DEVELOPMENT\PROJECTS\C++\LUA_INTER\VISUAL STUDIO\SDL_LUA_LIB\SDL_LUA_LIB_001\BUILD_WINDOWS\RELEASE\SDL_LUA_LIB.EXP
